{
  "slides": [
    {
      "components": [
        {
          "src": "http://frostcode.alwaysdata.net/oat/#",
          "type": "WebFrame",
          "x": -248,
          "y": -2,
          "scale": {
            "x": 1.6281249999999998,
            "y": 1.6281249999999998,
            "width": 1562.9999999999998,
            "height": 1250.3999999999999
          },
          "selected": false
        }
      ],
      "z": 0,
      "impScale": 3,
      "rotateX": 0,
      "rotateY": 0,
      "rotateZ": 0,
      "index": 0,
      "selected": true,
      "active": true,
      "x": 498,
      "y": 357
    },
    {
      "components": [
        {
          "src": "http://www.agi-architects.com/",
          "type": "WebFrame",
          "x": -247,
          "y": -1,
          "scale": {
            "x": 1.5958333333333334,
            "y": 1.5958333333333334,
            "width": 1532,
            "height": 1225.6000000000001
          },
          "selected": false
        }
      ],
      "z": 0,
      "impScale": 3,
      "rotateX": 0,
      "rotateY": 0,
      "rotateZ": -0.82,
      "index": 1,
      "selected": false,
      "active": false,
      "x": 852,
      "y": 227
    }
  ],
  "background": "bg-default",
  "activeSlide": {
    "components": [
      {
        "src": "http://frostcode.alwaysdata.net/oat/#",
        "type": "WebFrame",
        "x": -248,
        "y": -2,
        "scale": {
          "x": 1.6281249999999998,
          "y": 1.6281249999999998,
          "width": 1562.9999999999998,
          "height": 1250.3999999999999
        },
        "selected": false
      }
    ],
    "z": 0,
    "impScale": 3,
    "rotateX": 0,
    "rotateY": 0,
    "rotateZ": 0,
    "index": 0,
    "selected": true,
    "active": true,
    "x": 498,
    "y": 357
  },
  "fileName": "presentation-unnamed",
  "overviewX": 675,
  "overviewY": 292
}