<?xml version="1.0" encoding="UTF-8" standalone="no"?>
<svg
   xmlns:dc="http://purl.org/dc/elements/1.1/"
   xmlns:cc="http://creativecommons.org/ns#"
   xmlns:rdf="http://www.w3.org/1999/02/22-rdf-syntax-ns#"
   xmlns:svg="http://www.w3.org/2000/svg"
   xmlns="http://www.w3.org/2000/svg"
   xmlns:sodipodi="http://sodipodi.sourceforge.net/DTD/sodipodi-0.dtd"
   xmlns:inkscape="http://www.inkscape.org/namespaces/inkscape"
   width="72"
   gorn="0"
   version="1.1"
   height="214"
   id="svg2"
   inkscape:version="0.91 r13725"
   sodipodi:docname="grove_potentiometer_c62032f7ee35ddfe7b9a0e6976db948f_4_breadboard.svg">
  <sodipodi:namedview
     pagecolor="#ffffff"
     bordercolor="#666666"
     borderopacity="1"
     objecttolerance="10"
     gridtolerance="10"
     guidetolerance="10"
     inkscape:pageopacity="0"
     inkscape:pageshadow="2"
     inkscape:window-width="640"
     inkscape:window-height="480"
     id="namedview143"
     showgrid="false"
     inkscape:zoom="2.9135802"
     inkscape:cx="36"
     inkscape:cy="40.5"
     inkscape:window-x="0"
     inkscape:window-y="0"
     inkscape:window-maximized="0"
     inkscape:current-layer="svg2" />
  <desc
     id="desc3">
    <referenceFile>svg.breadboard.grove_potentiometer_breadboard.svg</referenceFile>
  </desc>
  <defs
     id="defs53" />
  <metadata
     id="metadata13579">
    <rdf:RDF>
      <cc:Work
         rdf:about="">
        <dc:format>image/svg+xml</dc:format>
        <dc:type
           rdf:resource="http://purl.org/dc/dcmitype/StillImage" />
        <dc:title></dc:title>
      </cc:Work>
    </rdf:RDF>
  </metadata>
  <g
     transform="translate(-6.515625,-836.33598)"
     id="g7">
    <g
       id="g9">
      <g
         gorn="0.3.0.0"
         id="g3072">
        <g
           transform="translate(0,967.32036)"
           id="g12">
          <g
             id="g14">
            <path
               d="m 42.53125,1.46875 c -3.099659,0 -5.625,2.525341 -5.625,5.625 l -27,0 c -1.5703937,0 -2.8125,1.2421063 -2.8125,2.8125 l 0,27 c 3.099659,0 5.59375,2.525341 5.59375,5.625 0,3.099659 -2.494091,5.59375 -5.59375,5.59375 l 0,27 c 0,1.570394 1.2421063,2.8125 2.8125,2.8125 l 27,0 c 0,3.099659 2.525341,5.625 5.625,5.625 3.099659,0 5.59375,-2.525341 5.59375,-5.625 l 27,0 c 1.570394,0 2.8125,-1.242106 2.8125,-2.8125 l 0,-27 c -3.099659,0 -5.59375,-2.494091 -5.59375,-5.59375 0,-3.099659 2.494091,-5.625 5.59375,-5.625 l 0,-27 c 0,-1.5703937 -1.242106,-2.8125 -2.8125,-2.8125 l -27,0 c 0,-3.099659 -2.494091,-5.625 -5.59375,-5.625 z m 0,2.375 c 1.794539,0 3.25,1.4554605 3.25,3.25 0,1.7945395 -1.455461,3.25 -3.25,3.25 -1.794539,0 -3.25,-1.4554605 -3.25,-3.25 0,-1.7945395 1.455461,-3.25 3.25,-3.25 z m 0,70.875 c 1.794539,0 3.25,1.424211 3.25,3.21875 0,1.794539 -1.455461,3.25 -3.25,3.25 -1.794539,0 -3.25,-1.455461 -3.25,-3.25 0,-1.794539 1.455461,-3.21875 3.25,-3.21875 z"
               gorn="0.3.0.0.0.0.0"
               id="rect2992"
               inkscape:connector-curvature="0"
               style="fill:#274a88" />
          </g>
        </g>
        <g
           transform="matrix(0,-1.2499976,1.2499976,0,-1253.5732,1051.9114)"
           id="g17">
          <g
             id="g19">
            <g
               gorn="0.3.0.0.1.0.0"
               id="g3109">
              <g
                 transform="translate(-1.6000031,0)"
                 id="g22">
                <g
                   id="g24">
                  <g
                     gorn="0.3.0.0.1.0.0.0.0.0"
                     id="g33658-1">
                    <path
                       d="m 31.61401,1022.5921 0,4.5426 -1.561524,0 0.01745,-2.9811 -9.10275,0 0,4.9685 -1.561524,0 0,-1.7034 -2.271347,0 0,-4.8266 14.479696,0 z"
                       gorn="0.3.0.0.1.0.0.0.0.0.0"
                       id="path16826-7"
                       inkscape:connector-curvature="0"
                       style="fill:#ffffff" />
                    <path
                       d="m 31.61401,1046.6114 0,4.5426 -14.479696,0 0,-4.8265 2.271347,0 0,-1.7035 1.561524,0 0,4.9685 9.085301,0 0,-2.9811 1.561524,0 z"
                       gorn="0.3.0.0.1.0.0.0.0.0.1"
                       id="path16828-7"
                       inkscape:connector-curvature="0"
                       style="fill:#ffffff" />
                    <path
                       d="m 20.967185,1049.5925 0,-4.9685 0,-15.5019 0,-4.9685 9.10275,0 -0.01745,2.9811 0,19.4767 0,2.9811 -9.085301,0 z m 3.832871,-20.5271 1.419471,0 0,-1.4196 -1.419471,0 0,1.4196 z m 1.419471,5.6322 0,-1.4196 -1.419471,0 0,1.4196 1.419471,0 z m 0,9.9831 -1.419471,0 0,1.4196 1.419471,0 0,-1.4196 z m -1.419471,-4.2587 1.419471,0 0,-1.4196 -1.419471,0 0,1.4196 z"
                       gorn="0.3.0.0.1.0.0.0.0.0.2"
                       id="path16830-7"
                       inkscape:connector-curvature="0"
                       style="fill:#ffffff" />
                    <path
                       d="m 31.61401,1046.6114 -1.561524,0 0,-19.4767 1.561524,0 0,19.4767 z"
                       gorn="0.3.0.0.1.0.0.0.0.0.3"
                       id="path16832-7"
                       inkscape:connector-curvature="0"
                       style="fill:#ffffff" />
                    <path
                       d="m 19.405661,1031.9045 0,-2.7824 1.561524,0 0,15.5019 -1.561524,0 0,-2.7824 0,-9.9371 z"
                       gorn="0.3.0.0.1.0.0.0.0.0.4"
                       id="path16834-3"
                       inkscape:connector-curvature="0"
                       style="fill:#ffffff" />
                    <path
                       d="m 16.992349,1031.9045 2.413312,0 0,9.9371 -2.413312,0 0,-9.9371 z"
                       gorn="0.3.0.0.1.0.0.0.0.0.5"
                       id="path16836-3"
                       inkscape:connector-curvature="0"
                       style="fill:#dbdbdb" />
                    <path
                       d="m 31.61401,1027.1347 0,-4.5426"
                       stroke-miterlimit="10"
                       gorn="0.3.0.0.1.0.0.0.0.0.6"
                       id="path22208-5"
                       inkscape:connector-curvature="0"
                       style="fill:none;stroke:#000000;stroke-width:0.088122;stroke-miterlimit:10" />
                    <path
                       d="m 31.61401,1027.1347 -1.561524,0"
                       stroke-miterlimit="10"
                       gorn="0.3.0.0.1.0.0.0.0.0.7"
                       id="path22210-9"
                       inkscape:connector-curvature="0"
                       style="fill:none;stroke:#000000;stroke-width:0.088122;stroke-miterlimit:10" />
                    <path
                       d="m 30.069935,1024.1536 -0.01745,2.9811"
                       stroke-miterlimit="10"
                       gorn="0.3.0.0.1.0.0.0.0.0.8"
                       id="path22212-9"
                       inkscape:connector-curvature="0"
                       style="fill:none;stroke:#000000;stroke-width:0.088122;stroke-miterlimit:10" />
                    <path
                       d="m 20.967185,1024.1536 9.10275,0"
                       stroke-miterlimit="10"
                       gorn="0.3.0.0.1.0.0.0.0.0.9"
                       id="path22214-8"
                       inkscape:connector-curvature="0"
                       style="fill:none;stroke:#000000;stroke-width:0.088122;stroke-miterlimit:10" />
                    <path
                       d="m 20.967185,1029.1221 -1.561524,0"
                       stroke-miterlimit="10"
                       gorn="0.3.0.0.1.0.0.0.0.0.10"
                       id="path22216-1"
                       inkscape:connector-curvature="0"
                       style="fill:none;stroke:#000000;stroke-width:0.088122;stroke-miterlimit:10" />
                    <path
                       d="m 19.405661,1027.4187 0,1.7034"
                       stroke-miterlimit="10"
                       gorn="0.3.0.0.1.0.0.0.0.0.11"
                       id="path22218-8"
                       inkscape:connector-curvature="0"
                       style="fill:none;stroke:#000000;stroke-width:0.088122;stroke-miterlimit:10" />
                    <path
                       d="m 31.61401,1046.6114 0,-19.4767"
                       stroke-miterlimit="10"
                       gorn="0.3.0.0.1.0.0.0.0.0.12"
                       id="path22220-2"
                       inkscape:connector-curvature="0"
                       style="fill:none;stroke:#000000;stroke-width:0.088122;stroke-miterlimit:10" />
                    <path
                       d="m 19.405661,1029.1221 0,2.7824"
                       stroke-miterlimit="10"
                       gorn="0.3.0.0.1.0.0.0.0.0.13"
                       id="path22222-6"
                       inkscape:connector-curvature="0"
                       style="fill:none;stroke:#000000;stroke-width:0.088122;stroke-miterlimit:10" />
                    <path
                       d="m 17.134314,1022.5921 0,4.8266"
                       stroke-miterlimit="10"
                       gorn="0.3.0.0.1.0.0.0.0.0.14"
                       id="path22240-6"
                       inkscape:connector-curvature="0"
                       style="fill:none;stroke:#000000;stroke-width:0.088122;stroke-miterlimit:10" />
                    <path
                       d="m 19.405661,1027.4187 -2.271347,0"
                       stroke-miterlimit="10"
                       gorn="0.3.0.0.1.0.0.0.0.0.15"
                       id="path22242-0"
                       inkscape:connector-curvature="0"
                       style="fill:none;stroke:#000000;stroke-width:0.088122;stroke-miterlimit:10" />
                    <path
                       d="m 19.405661,1031.9045 -2.413312,0"
                       stroke-miterlimit="10"
                       gorn="0.3.0.0.1.0.0.0.0.0.16"
                       id="path22244-3"
                       inkscape:connector-curvature="0"
                       style="fill:none;stroke:#000000;stroke-width:0.088122;stroke-miterlimit:10" />
                    <path
                       d="m 30.052486,1049.5925 -9.085301,0"
                       stroke-miterlimit="10"
                       gorn="0.3.0.0.1.0.0.0.0.0.17"
                       id="path22246-8"
                       inkscape:connector-curvature="0"
                       style="fill:none;stroke:#000000;stroke-width:0.088122;stroke-miterlimit:10" />
                    <path
                       d="m 30.052486,1046.6114 0,2.9811"
                       stroke-miterlimit="10"
                       gorn="0.3.0.0.1.0.0.0.0.0.18"
                       id="path22248-0"
                       inkscape:connector-curvature="0"
                       style="fill:none;stroke:#000000;stroke-width:0.088122;stroke-miterlimit:10" />
                    <path
                       d="m 31.61401,1046.6114 -1.561524,0"
                       stroke-miterlimit="10"
                       gorn="0.3.0.0.1.0.0.0.0.0.19"
                       id="path22250-1"
                       inkscape:connector-curvature="0"
                       style="fill:none;stroke:#000000;stroke-width:0.088122;stroke-miterlimit:10" />
                    <path
                       d="m 31.61401,1046.6114 0,4.5426"
                       stroke-miterlimit="10"
                       gorn="0.3.0.0.1.0.0.0.0.0.20"
                       id="path22252-2"
                       inkscape:connector-curvature="0"
                       style="fill:none;stroke:#000000;stroke-width:0.088122;stroke-miterlimit:10" />
                    <path
                       d="m 19.405661,1046.3275 0,-1.7035"
                       stroke-miterlimit="10"
                       gorn="0.3.0.0.1.0.0.0.0.0.21"
                       id="path22254-5"
                       inkscape:connector-curvature="0"
                       style="fill:none;stroke:#000000;stroke-width:0.088122;stroke-miterlimit:10" />
                    <path
                       d="m 19.405661,1044.624 1.561524,0"
                       stroke-miterlimit="10"
                       gorn="0.3.0.0.1.0.0.0.0.0.22"
                       id="path22256-0"
                       inkscape:connector-curvature="0"
                       style="fill:none;stroke:#000000;stroke-width:0.088122;stroke-miterlimit:10" />
                    <path
                       d="m 19.405661,1044.624 0,-2.7824"
                       stroke-miterlimit="10"
                       gorn="0.3.0.0.1.0.0.0.0.0.23"
                       id="path22258-9"
                       inkscape:connector-curvature="0"
                       style="fill:none;stroke:#000000;stroke-width:0.088122;stroke-miterlimit:10" />
                    <path
                       d="m 17.134314,1051.154 0,-4.8265"
                       stroke-miterlimit="10"
                       gorn="0.3.0.0.1.0.0.0.0.0.24"
                       id="path22276-4"
                       inkscape:connector-curvature="0"
                       style="fill:none;stroke:#000000;stroke-width:0.088122;stroke-miterlimit:10" />
                    <path
                       d="m 19.405661,1046.3275 -2.271347,0"
                       stroke-miterlimit="10"
                       gorn="0.3.0.0.1.0.0.0.0.0.25"
                       id="path22278-7"
                       inkscape:connector-curvature="0"
                       style="fill:none;stroke:#000000;stroke-width:0.088122;stroke-miterlimit:10" />
                    <path
                       d="m 19.405661,1041.8416 -2.413312,0"
                       stroke-miterlimit="10"
                       gorn="0.3.0.0.1.0.0.0.0.0.26"
                       id="path22280-8"
                       inkscape:connector-curvature="0"
                       style="fill:none;stroke:#000000;stroke-width:0.088122;stroke-miterlimit:10" />
                    <path
                       d="m 17.134314,1022.5921 14.479696,0"
                       stroke-miterlimit="10"
                       gorn="0.3.0.0.1.0.0.0.0.0.27"
                       id="path29506-3"
                       inkscape:connector-curvature="0"
                       style="fill:none;stroke:#000000;stroke-width:0.088122;stroke-miterlimit:10" />
                    <path
                       d="m 19.405661,1031.9045 0,9.9371"
                       stroke-miterlimit="10"
                       gorn="0.3.0.0.1.0.0.0.0.0.28"
                       id="path29508-5"
                       inkscape:connector-curvature="0"
                       style="fill:none;stroke:#000000;stroke-width:0.088122;stroke-miterlimit:10" />
                    <path
                       d="m 31.61401,1051.154 -14.479696,0"
                       stroke-miterlimit="10"
                       gorn="0.3.0.0.1.0.0.0.0.0.29"
                       id="path29510-1"
                       inkscape:connector-curvature="0"
                       style="fill:none;stroke:#000000;stroke-width:0.088122;stroke-miterlimit:10" />
                    <path
                       d="m 30.052486,1027.1347 0,19.4767"
                       stroke-miterlimit="10"
                       gorn="0.3.0.0.1.0.0.0.0.0.30"
                       id="path29512-2"
                       inkscape:connector-curvature="0"
                       style="fill:none;stroke:#000000;stroke-width:0.088122;stroke-miterlimit:10" />
                  </g>
                </g>
              </g>
              <path
                 d="m 23.200053,1029.0654 0,-1.4196 1.419471,0 0,1.4196 -1.419471,0 z"
                 gorn="0.3.0.0.1.0.0.1"
                 id="connector3pin"
                 inkscape:connector-curvature="0"
                 style="fill:#ffe500;stroke:#000000;stroke-width:0.088;stroke-linejoin:round" />
              <path
                 d="m 24.619524,1033.278 0,1.4196 -1.419471,0 0,-1.4196 1.419471,0 z"
                 gorn="0.3.0.0.1.0.0.2"
                 id="connector2pin"
                 inkscape:connector-curvature="0"
                 style="fill:#ffe500;stroke:#000000;stroke-width:0.088;stroke-linejoin:round" />
              <path
                 d="m 23.200053,1039.0024 1.419471,0 0,1.4196 -1.419471,0 0,-1.4196 z"
                 gorn="0.3.0.0.1.0.0.3"
                 id="connector1pin"
                 inkscape:connector-curvature="0"
                 style="fill:#ffe500;stroke:#000000;stroke-width:0.088;stroke-linejoin:round" />
              <path
                 d="m 23.200053,1044.6807 1.419471,0 0,1.4196 -1.419471,0 0,-1.4196 z"
                 gorn="0.3.0.0.1.0.0.4"
                 id="connector0pin"
                 inkscape:connector-curvature="0"
                 style="fill:#ffe500;stroke:#000000;stroke-width:0.088;stroke-linejoin:round" />
            </g>
          </g>
        </g>
        <g
           transform="matrix(0,-1.25,1.25,0,92.616794,1083.3506)"
           id="g62">
          <g
             id="g64">
            <text
               font-size="3.2"
               x="33.579144"
               y="-29.868372"
               gorn="0.3.0.0.2.0.0"
               id="tspan11445"
               style="font-size:3.20000005px;font-family:OCRA;fill:#ffffff">GND</text>
          </g>
        </g>
        <g
           transform="matrix(0,-1.25,1.25,0,92.616794,1083.3506)"
           id="g67">
          <g
             id="g69">
            <text
               font-size="3.2"
               x="33.579144"
               y="-35.621315"
               gorn="0.3.0.0.3.0.0"
               id="tspan11445-6"
               style="font-size:3.20000005px;font-family:OCRA;fill:#ffffff">VCC</text>
          </g>
        </g>
        <g
           transform="matrix(0,-1.25,1.25,0,92.616794,1083.3506)"
           id="g72">
          <g
             id="g74">
            <text
               font-size="3.2"
               x="33.579144"
               y="-41.37426"
               gorn="0.3.0.0.4.0.0"
               id="tspan11445-1"
               style="font-size:3.20000005px;font-family:OCRA;fill:#ffffff">NC</text>
          </g>
        </g>
        <g
           transform="matrix(0,-1.25,1.25,0,92.616794,1083.3506)"
           id="g77">
          <g
             id="g79">
            <text
               font-size="3.2"
               x="33.579144"
               y="-47.127209"
               gorn="0.3.0.0.5.0.0"
               id="tspan11445-7"
               style="font-size:3.20000005px;font-family:OCRA;fill:#ffffff">SIG</text>
          </g>
        </g>
        <rect
           x="22.344107"
           style="fill:#a05a2c;fill-opacity:1"
           y="981.45807"
           width="21.259842"
           gorn="0.3.0.0.6"
           height="28.346457"
           id="rect4321" />
        <g
           transform="matrix(1.1507334,0,0,1.0475286,-6.8422495,968.20904)"
           id="g83">
          <g
             id="g85">
            <path
               d="m 55.212756,26.211958 a 12.316691,13.530162 0 1 1 -24.633383,0 12.316691,13.530162 0 1 1 24.633383,0 z"
               gorn="0.3.0.0.7.0.0"
               id="path3049"
               inkscape:connector-curvature="0"
               style="fill:#cccccc;fill-opacity:1;stroke:none" />
          </g>
        </g>
        <path
           d="m 49.397268,995.66679 c 0,3.7984 -3.079205,6.87761 -6.877597,6.87761 -3.798392,0 -6.877598,-3.07921 -6.877598,-6.87761 0,-3.79839 3.079206,-6.87759 6.877598,-6.87759 3.798392,0 6.877597,3.0792 6.877597,6.87759 z"
           gorn="0.3.0.0.8"
           id="path4323-1"
           inkscape:connector-curvature="0"
           style="fill:none;stroke:#808080;stroke-width:0.41803294" />
        <g
           transform="matrix(0,1,-1,0,1036.353,911.79791)"
           id="g89">
          <g
             id="g91">
            <g
               gorn="0.3.0.0.9.0.0"
               id="g5078">
              <path
                 d="m 89.18387,993.83333 c 0,2.93537 -2.379589,5.31496 -5.31496,5.31496 -2.935372,0 -5.314961,-2.37959 -5.314961,-5.31496 0,-2.93537 2.379589,-5.31496 5.314961,-5.31496 2.935371,0 5.31496,2.37959 5.31496,5.31496 z"
                 style="opacity:0.92181067;fill:#1a1a1a"
                 gorn="0.3.0.0.9.0.0.0"
                 id="path4323-6"
                 inkscape:connector-curvature="0" />
              <path
                 d="m 83.87137,988.52078 c -0.832939,0 -1.610734,0.221 -2.3125,0.5625 l 0,9.5313 c 0.701766,0.3416 1.479561,0.5313 2.3125,0.5313 2.935369,0 5.3125,-2.3772 5.3125,-5.3126 0,-2.9353 -2.377131,-5.3125 -5.3125,-5.3125 z"
                 style="fill:#4d4d4d"
                 gorn="0.3.0.0.9.0.0.1"
                 id="path4323-6-7"
                 inkscape:connector-curvature="0" />
              <path
                 d="m 81.55887,992.84893 0,1.9688 7.53125,0 c 0.05921,-0.3178 0.09375,-0.6337 0.09375,-0.9688 0,-0.3443 -0.03126,-0.674 -0.09375,-1 l -7.53125,0 z"
                 style="opacity:1;fill:#333333"
                 gorn="0.3.0.0.9.0.0.2"
                 id="path4323-6-7-0"
                 inkscape:connector-curvature="0" />
            </g>
          </g>
        </g>
        <g
           transform="translate(0,0.64683361)"
           id="g97">
          <g
             id="g99">
            <g
               gorn="0.3.0.0.10.0.0"
               id="g5183">
              <g
                 gorn="0.3.0.0.10.0.0.0"
                 id="g5124">
                <g
                   transform="translate(6.515625,969.33598)"
                   id="g103">
                  <g
                     id="g105">
                    <path
                       d="m 15.4375,31.625 0,3.5625 3.59375,0 c 0.978457,0 1.75,-0.80275 1.75,-1.78125 0,-0.9784 -0.771543,-1.78125 -1.75,-1.78125 l -3.59375,0 z"
                       gorn="0.3.0.0.10.0.0.0.0.0.0"
                       id="rect5083"
                       inkscape:connector-curvature="0"
                       style="fill:#cccccc;fill-opacity:1;stroke:none" />
                  </g>
                </g>
                <g
                   transform="matrix(0.12706104,0,0,0.1214554,14.225418,998.41714)"
                   id="g108">
                  <g
                     id="g110">
                    <path
                       d="m 91.811439,35.609112 c 0,1.61122 -1.248528,2.917373 -2.788665,2.917373 -1.540138,0 -2.788666,-1.306153 -2.788666,-2.917373 0,-1.611221 1.248528,-2.917373 2.788666,-2.917373 1.540137,0 2.788665,1.306152 2.788665,2.917373 z"
                       gorn="0.3.0.0.10.0.0.0.1.0.0"
                       id="path5085-5"
                       inkscape:connector-curvature="0"
                       style="fill:#000000;fill-opacity:1;stroke:none" />
                  </g>
                </g>
              </g>
              <g
                 transform="translate(0,-7.7577667)"
                 id="g113">
                <g
                   id="g115">
                  <g
                     gorn="0.3.0.0.10.0.0.1.0.0"
                     id="g5124-6">
                    <g
                       transform="translate(6.515625,969.33598)"
                       id="g118">
                      <g
                         id="g120">
                        <path
                           d="m 15.4375,31.625 0,3.5625 3.59375,0 c 0.978457,0 1.75,-0.80275 1.75,-1.78125 0,-0.9784 -0.771543,-1.78125 -1.75,-1.78125 l -3.59375,0 z"
                           gorn="0.3.0.0.10.0.0.1.0.0.0.0.0"
                           id="rect5083-4"
                           inkscape:connector-curvature="0"
                           style="fill:#cccccc;fill-opacity:1;stroke:none" />
                      </g>
                    </g>
                    <g
                       transform="matrix(0.12706104,0,0,0.1214554,14.225418,998.41714)"
                       id="g123">
                      <g
                         id="g125">
                        <path
                           d="m 91.811439,35.609112 c 0,1.61122 -1.248528,2.917373 -2.788665,2.917373 -1.540138,0 -2.788666,-1.306153 -2.788666,-2.917373 0,-1.611221 1.248528,-2.917373 2.788666,-2.917373 1.540137,0 2.788665,1.306152 2.788665,2.917373 z"
                           gorn="0.3.0.0.10.0.0.1.0.0.1.0.0"
                           id="path5085-5-7"
                           inkscape:connector-curvature="0"
                           style="fill:#000000;fill-opacity:1;stroke:none" />
                      </g>
                    </g>
                  </g>
                </g>
              </g>
              <g
                 transform="translate(0,-15.515533)"
                 id="g128">
                <g
                   id="g130">
                  <g
                     gorn="0.3.0.0.10.0.0.2.0.0"
                     id="g5124-5">
                    <g
                       transform="translate(6.515625,969.33598)"
                       id="g133">
                      <g
                         id="g135">
                        <path
                           d="m 15.4375,31.625 0,3.5625 3.59375,0 c 0.978457,0 1.75,-0.80275 1.75,-1.78125 0,-0.9784 -0.771543,-1.78125 -1.75,-1.78125 l -3.59375,0 z"
                           gorn="0.3.0.0.10.0.0.2.0.0.0.0.0"
                           id="rect5083-6"
                           inkscape:connector-curvature="0"
                           style="fill:#cccccc;fill-opacity:1;stroke:none" />
                      </g>
                    </g>
                    <g
                       transform="matrix(0.12706104,0,0,0.1214554,14.225418,998.41714)"
                       id="g138">
                      <g
                         id="g140">
                        <path
                           d="m 91.811439,35.609112 c 0,1.61122 -1.248528,2.917373 -2.788665,2.917373 -1.540138,0 -2.788666,-1.306153 -2.788666,-2.917373 0,-1.611221 1.248528,-2.917373 2.788666,-2.917373 1.540137,0 2.788665,1.306152 2.788665,2.917373 z"
                           gorn="0.3.0.0.10.0.0.2.0.0.1.0.0"
                           id="path5085-5-3"
                           inkscape:connector-curvature="0"
                           style="fill:#000000;fill-opacity:1;stroke:none" />
                      </g>
                    </g>
                  </g>
                </g>
              </g>
            </g>
          </g>
        </g>
      </g>
    </g>
  </g>
</svg>
