<?xml version="1.0" encoding="UTF-8" standalone="no"?>
<svg
   xmlns:dc="http://purl.org/dc/elements/1.1/"
   xmlns:cc="http://creativecommons.org/ns#"
   xmlns:rdf="http://www.w3.org/1999/02/22-rdf-syntax-ns#"
   xmlns:svg="http://www.w3.org/2000/svg"
   xmlns="http://www.w3.org/2000/svg"
   xmlns:sodipodi="http://sodipodi.sourceforge.net/DTD/sodipodi-0.dtd"
   xmlns:inkscape="http://www.inkscape.org/namespaces/inkscape"
   height="214"
   width="72"
   version="1.1"
   id="svg2"
   inkscape:version="0.91 r13725"
   sodipodi:docname="grove_temperature_sensor_breadboard.svg">
  <defs
     id="defs63" />
  <sodipodi:namedview
     pagecolor="#ffffff"
     bordercolor="#666666"
     borderopacity="1"
     objecttolerance="10"
     gridtolerance="10"
     guidetolerance="10"
     inkscape:pageopacity="0"
     inkscape:pageshadow="2"
     inkscape:window-width="640"
     inkscape:window-height="480"
     id="namedview61"
     showgrid="false"
     inkscape:zoom="2.9135802"
     inkscape:cx="36"
     inkscape:cy="40.5"
     inkscape:window-x="0"
     inkscape:window-y="0"
     inkscape:window-maximized="0"
     inkscape:current-layer="svg2" />
  <metadata
     id="metadata13579">
    <rdf:RDF>
      <cc:Work
         rdf:about="">
        <dc:format>image/svg+xml</dc:format>
        <dc:type
           rdf:resource="http://purl.org/dc/dcmitype/StillImage" />
        <dc:title></dc:title>
      </cc:Work>
    </rdf:RDF>
  </metadata>
  <g
     transform="translate(-6.515625,-836.33598)"
     id="g4423">
    <path
       d="m 42.53125,1.46875 c -3.099659,0 -5.625,2.525341 -5.625,5.625 l -27,0 c -1.5703937,0 -2.8125,1.2421063 -2.8125,2.8125 l 0,27 c 3.099659,0 5.59375,2.525341 5.59375,5.625 0,3.099659 -2.494091,5.59375 -5.59375,5.59375 l 0,27 c 0,1.570394 1.2421063,2.8125 2.8125,2.8125 l 27,0 c 0,3.099659 2.525341,5.625 5.625,5.625 3.099659,0 5.59375,-2.525341 5.59375,-5.625 l 27,0 c 1.570394,0 2.8125,-1.242106 2.8125,-2.8125 l 0,-27 c -3.099659,0 -5.59375,-2.494091 -5.59375,-5.59375 0,-3.099659 2.494091,-5.625 5.59375,-5.625 l 0,-27 c 0,-1.5703937 -1.242106,-2.8125 -2.8125,-2.8125 l -27,0 c 0,-3.099659 -2.494091,-5.625 -5.59375,-5.625 z m 0,2.375 c 1.794539,0 3.25,1.4554605 3.25,3.25 0,1.7945395 -1.455461,3.25 -3.25,3.25 -1.794539,0 -3.25,-1.4554605 -3.25,-3.25 0,-1.7945395 1.455461,-3.25 3.25,-3.25 z m 0,70.875 c 1.794539,0 3.25,1.424211 3.25,3.21875 0,1.794539 -1.455461,3.25 -3.25,3.25 -1.794539,0 -3.25,-1.455461 -3.25,-3.25 0,-1.794539 1.455461,-3.21875 3.25,-3.21875 z"
       id="rect2992"
       transform="translate(0,967.32036)"
       inkscape:connector-curvature="0"
       style="fill:#274a88" />
    <g
       id="g3109"
       transform="matrix(0,-1.2499976,1.2499976,0,-1253.5732,1051.9114)">
      <g
         id="g33658-1"
         transform="translate(-1.6000031,0)">
        <path
           d="m 31.61401,1022.5921 0,4.5426 -1.561524,0 0.01745,-2.9811 -9.10275,0 0,4.9685 -1.561524,0 0,-1.7034 -2.271347,0 0,-4.8266 14.479696,0 z"
           id="path16826-7"
           inkscape:connector-curvature="0"
           style="fill:#ffffff" />
        <path
           d="m 31.61401,1046.6114 0,4.5426 -14.479696,0 0,-4.8265 2.271347,0 0,-1.7035 1.561524,0 0,4.9685 9.085301,0 0,-2.9811 1.561524,0 z"
           id="path16828-7"
           inkscape:connector-curvature="0"
           style="fill:#ffffff" />
        <path
           d="m 20.967185,1049.5925 0,-4.9685 0,-15.5019 0,-4.9685 9.10275,0 -0.01745,2.9811 0,19.4767 0,2.9811 -9.085301,0 z m 3.832871,-20.5271 1.419471,0 0,-1.4196 -1.419471,0 0,1.4196 z m 1.419471,5.6322 0,-1.4196 -1.419471,0 0,1.4196 1.419471,0 z m 0,9.9831 -1.419471,0 0,1.4196 1.419471,0 0,-1.4196 z m -1.419471,-4.2587 1.419471,0 0,-1.4196 -1.419471,0 0,1.4196 z"
           id="path16830-7"
           inkscape:connector-curvature="0"
           style="fill:#ffffff" />
        <path
           d="m 31.61401,1046.6114 -1.561524,0 0,-19.4767 1.561524,0 0,19.4767 z"
           id="path16832-7"
           inkscape:connector-curvature="0"
           style="fill:#ffffff" />
        <path
           d="m 19.405661,1031.9045 0,-2.7824 1.561524,0 0,15.5019 -1.561524,0 0,-2.7824 0,-9.9371 z"
           id="path16834-3"
           inkscape:connector-curvature="0"
           style="fill:#ffffff" />
        <path
           d="m 16.992349,1031.9045 2.413312,0 0,9.9371 -2.413312,0 0,-9.9371 z"
           id="path16836-3"
           inkscape:connector-curvature="0"
           style="fill:#dbdbdb" />
        <path
           d="m 31.61401,1027.1347 0,-4.5426"
           id="path22208-5"
           stroke-miterlimit="10"
           inkscape:connector-curvature="0"
           style="fill:none;stroke:#000000;stroke-width:0.088122;stroke-miterlimit:10" />
        <path
           d="m 31.61401,1027.1347 -1.561524,0"
           id="path22210-9"
           stroke-miterlimit="10"
           inkscape:connector-curvature="0"
           style="fill:none;stroke:#000000;stroke-width:0.088122;stroke-miterlimit:10" />
        <path
           d="m 30.069935,1024.1536 -0.01745,2.9811"
           id="path22212-9"
           stroke-miterlimit="10"
           inkscape:connector-curvature="0"
           style="fill:none;stroke:#000000;stroke-width:0.088122;stroke-miterlimit:10" />
        <path
           d="m 20.967185,1024.1536 9.10275,0"
           id="path22214-8"
           stroke-miterlimit="10"
           inkscape:connector-curvature="0"
           style="fill:none;stroke:#000000;stroke-width:0.088122;stroke-miterlimit:10" />
        <path
           d="m 20.967185,1029.1221 -1.561524,0"
           id="path22216-1"
           stroke-miterlimit="10"
           inkscape:connector-curvature="0"
           style="fill:none;stroke:#000000;stroke-width:0.088122;stroke-miterlimit:10" />
        <path
           d="m 19.405661,1027.4187 0,1.7034"
           id="path22218-8"
           stroke-miterlimit="10"
           inkscape:connector-curvature="0"
           style="fill:none;stroke:#000000;stroke-width:0.088122;stroke-miterlimit:10" />
        <path
           d="m 31.61401,1046.6114 0,-19.4767"
           id="path22220-2"
           stroke-miterlimit="10"
           inkscape:connector-curvature="0"
           style="fill:none;stroke:#000000;stroke-width:0.088122;stroke-miterlimit:10" />
        <path
           d="m 19.405661,1029.1221 0,2.7824"
           id="path22222-6"
           stroke-miterlimit="10"
           inkscape:connector-curvature="0"
           style="fill:none;stroke:#000000;stroke-width:0.088122;stroke-miterlimit:10" />
        <path
           d="m 17.134314,1022.5921 0,4.8266"
           id="path22240-6"
           stroke-miterlimit="10"
           inkscape:connector-curvature="0"
           style="fill:none;stroke:#000000;stroke-width:0.088122;stroke-miterlimit:10" />
        <path
           d="m 19.405661,1027.4187 -2.271347,0"
           id="path22242-0"
           stroke-miterlimit="10"
           inkscape:connector-curvature="0"
           style="fill:none;stroke:#000000;stroke-width:0.088122;stroke-miterlimit:10" />
        <path
           d="m 19.405661,1031.9045 -2.413312,0"
           id="path22244-3"
           stroke-miterlimit="10"
           inkscape:connector-curvature="0"
           style="fill:none;stroke:#000000;stroke-width:0.088122;stroke-miterlimit:10" />
        <path
           d="m 30.052486,1049.5925 -9.085301,0"
           id="path22246-8"
           stroke-miterlimit="10"
           inkscape:connector-curvature="0"
           style="fill:none;stroke:#000000;stroke-width:0.088122;stroke-miterlimit:10" />
        <path
           d="m 30.052486,1046.6114 0,2.9811"
           id="path22248-0"
           stroke-miterlimit="10"
           inkscape:connector-curvature="0"
           style="fill:none;stroke:#000000;stroke-width:0.088122;stroke-miterlimit:10" />
        <path
           d="m 31.61401,1046.6114 -1.561524,0"
           id="path22250-1"
           stroke-miterlimit="10"
           inkscape:connector-curvature="0"
           style="fill:none;stroke:#000000;stroke-width:0.088122;stroke-miterlimit:10" />
        <path
           d="m 31.61401,1046.6114 0,4.5426"
           id="path22252-2"
           stroke-miterlimit="10"
           inkscape:connector-curvature="0"
           style="fill:none;stroke:#000000;stroke-width:0.088122;stroke-miterlimit:10" />
        <path
           d="m 19.405661,1046.3275 0,-1.7035"
           id="path22254-5"
           stroke-miterlimit="10"
           inkscape:connector-curvature="0"
           style="fill:none;stroke:#000000;stroke-width:0.088122;stroke-miterlimit:10" />
        <path
           d="m 19.405661,1044.624 1.561524,0"
           id="path22256-0"
           stroke-miterlimit="10"
           inkscape:connector-curvature="0"
           style="fill:none;stroke:#000000;stroke-width:0.088122;stroke-miterlimit:10" />
        <path
           d="m 19.405661,1044.624 0,-2.7824"
           id="path22258-9"
           stroke-miterlimit="10"
           inkscape:connector-curvature="0"
           style="fill:none;stroke:#000000;stroke-width:0.088122;stroke-miterlimit:10" />
        <path
           d="m 17.134314,1051.154 0,-4.8265"
           id="path22276-4"
           stroke-miterlimit="10"
           inkscape:connector-curvature="0"
           style="fill:none;stroke:#000000;stroke-width:0.088122;stroke-miterlimit:10" />
        <path
           d="m 19.405661,1046.3275 -2.271347,0"
           id="path22278-7"
           stroke-miterlimit="10"
           inkscape:connector-curvature="0"
           style="fill:none;stroke:#000000;stroke-width:0.088122;stroke-miterlimit:10" />
        <path
           d="m 19.405661,1041.8416 -2.413312,0"
           id="path22280-8"
           stroke-miterlimit="10"
           inkscape:connector-curvature="0"
           style="fill:none;stroke:#000000;stroke-width:0.088122;stroke-miterlimit:10" />
        <path
           d="m 17.134314,1022.5921 14.479696,0"
           id="path29506-3"
           stroke-miterlimit="10"
           inkscape:connector-curvature="0"
           style="fill:none;stroke:#000000;stroke-width:0.088122;stroke-miterlimit:10" />
        <path
           d="m 19.405661,1031.9045 0,9.9371"
           id="path29508-5"
           stroke-miterlimit="10"
           inkscape:connector-curvature="0"
           style="fill:none;stroke:#000000;stroke-width:0.088122;stroke-miterlimit:10" />
        <path
           d="m 31.61401,1051.154 -14.479696,0"
           id="path29510-1"
           stroke-miterlimit="10"
           inkscape:connector-curvature="0"
           style="fill:none;stroke:#000000;stroke-width:0.088122;stroke-miterlimit:10" />
        <path
           d="m 30.052486,1027.1347 0,19.4767"
           id="path29512-2"
           stroke-miterlimit="10"
           inkscape:connector-curvature="0"
           style="fill:none;stroke:#000000;stroke-width:0.088122;stroke-miterlimit:10" />
      </g>
      <path
         d="m 23.200053,1029.0654 0,-1.4196 1.419471,0 0,1.4196 -1.419471,0 z"
         id="connector3pin"
         inkscape:connector-curvature="0"
         style="fill:#ffe500;stroke:#000000;stroke-width:0.088;stroke-linejoin:round" />
      <path
         d="m 24.619524,1033.278 0,1.4196 -1.419471,0 0,-1.4196 1.419471,0 z"
         id="connector2pin"
         inkscape:connector-curvature="0"
         style="fill:#ffe500;stroke:#000000;stroke-width:0.088;stroke-linejoin:round" />
      <path
         d="m 23.200053,1039.0024 1.419471,0 0,1.4196 -1.419471,0 0,-1.4196 z"
         id="connector1pin"
         inkscape:connector-curvature="0"
         style="fill:#ffe500;stroke:#000000;stroke-width:0.088;stroke-linejoin:round" />
      <path
         d="m 23.200053,1044.6807 1.419471,0 0,1.4196 -1.419471,0 0,-1.4196 z"
         id="connector0pin"
         inkscape:connector-curvature="0"
         style="fill:#ffe500;stroke:#000000;stroke-width:0.088;stroke-linejoin:round" />
    </g>
    <text
       x="33.579144"
       y="-29.868372"
       id="tspan11445"
       font-size="3.2"
       transform="matrix(0,-1.25,1.25,0,92.616794,1083.3506)"
       style="font-size:3.20000005px;font-family:OCRA;fill:#ffffff">GND</text>
    <text
       x="33.579144"
       y="-35.621315"
       id="tspan11445-6"
       font-size="3.2"
       transform="matrix(0,-1.25,1.25,0,92.616794,1083.3506)"
       style="font-size:3.20000005px;font-family:OCRA;fill:#ffffff">VCC</text>
    <text
       x="33.579144"
       y="-41.37426"
       id="tspan11445-1"
       font-size="3.2"
       transform="matrix(0,-1.25,1.25,0,92.616794,1083.3506)"
       style="font-size:3.20000005px;font-family:OCRA;fill:#ffffff">NC</text>
    <text
       x="33.579144"
       y="-47.127209"
       id="tspan11445-7"
       font-size="3.2"
       transform="matrix(0,-1.25,1.25,0,92.616794,1083.3506)"
       style="font-size:3.20000005px;font-family:OCRA;fill:#ffffff">SIG</text>
    <rect
       height="14.173228"
       x="40.748032"
       y="994.12354"
       width="17.716536"
       id="rect4321"
       style="fill:#333333" />
    <g
       id="g9"
       transform="matrix(0.90000001,0,0,0.90000001,12.783641,974.77149)">
      <g
         id="g3865"
         transform="matrix(0.66412572,0,0,0.65706739,6.6273683,12.158363)">
        <path
           d="M 4.02,18.675 C 3.292,17.963 2.985,17.145 3,16.73 c 0.022,-1.325 0.2,-2.381 1.354,-3.563 1.5,-1.5 2.874,-2.875 2.874,-2.875 L 5.107,8.171 c -0.004,0.002 -1.376,1.375 -2.876,2.874 -1.849,1.817 -2.253,4.012 -2.23,5.686 0.018,1.504 0.747,2.904 1.897,4.066 0.11,0.072 0.49,0.775 0.686,1.59 0.216,0.819 0.337,1.774 0.335,2.44 l 0,0 3,0 0,0 C 5.917,23.842 5.768,22.712 5.485,21.626 5.18,20.539 4.828,19.52 4.02,18.675 Z"
           id="path11"
           inkscape:connector-curvature="0"
           style="fill:#b3b3b3" />
        <path
           d="M 16.603,11.043 C 15.102,9.543 13.729,8.167 13.729,8.167 l -2.122,2.123 c 0.002,0.002 1.375,1.375 2.874,2.874 1.151,1.184 1.332,2.24 1.354,3.565 0.016,0.416 -0.292,1.232 -1.02,1.944 -0.81,0.847 -1.16,1.865 -1.465,2.95 -0.282,1.084 -0.432,2.215 -0.436,3.201 l 0.005,0 0,0 3,0 0,0 -0.001,0 c -0.002,-0.665 0.12,-1.621 0.336,-2.44 0.195,-0.813 0.572,-1.517 0.685,-1.589 1.151,-1.165 1.881,-2.566 1.896,-4.066 0.023,-1.673 -0.383,-3.868 -2.232,-5.686 z"
           id="path13"
           inkscape:connector-curvature="0"
           style="fill:#b3b3b3" />
        <path
           d="M 17.731,11.986 C 17.032,11.13 16.085,9.937 16.085,8.063 l 0,-5.688 C 16.085,0.708 15.214,0 13.981,0 12.252,0 11.731,0.604 9.856,0.604 l -0.875,0 C 7.106,0.604 6.585,0 4.856,0 3.623,0 2.752,0.708 2.752,2.375 l 0,5.688 c 0,1.874 -1.001,2.939 -1.646,3.84 -0.562,0.781 -1,1.91 -1,2.473 1.396,-0.604 2.5,-0.25 3.312,0.562 1.125,-1.688 3.125,-3.236 4.875,-3.236 l 2.25,0 c 1.75,0 3.75,1.549 4.875,3.236 0.812,-0.812 1.915,-1.166 3.312,-0.562 0.001,-0.563 -0.217,-1.432 -0.999,-2.39 z"
           id="path15"
           inkscape:connector-curvature="0"
           style="fill:#008cff" />
        <path
           d="m 18.731,14.375 c 0,-0.562 -0.222,-1.432 -1,-2.39 -0.699,-0.856 -1.646,-2.049 -1.646,-3.923 l 0,-5.687 c 0,-0.871 -0.241,-1.474 -0.645,-1.854 -0.003,0.028 -0.021,0.058 -0.021,0.09 0,0.281 0.221,0.531 0.281,0.844 0.074,0.373 -0.094,1 -0.375,1.531 -0.281,0.531 -1,1.656 -1,2.656 0,1.153 0.219,2.219 0.531,2.969 0.297,0.712 0.844,1.625 1.594,2.344 0.75,0.719 1,1.594 1.062,1.938 0.062,0.344 -0.153,0.594 -0.594,0.812 -0.438,0.218 -1.22,0.156 -1.562,0.031 -0.346,-0.125 -1.125,-0.812 -1.472,-1.25 -0.344,-0.438 -0.719,-1.188 -1.25,-1.812 -0.5,-0.588 -1.625,-1.403 -3.125,-1.403 -1.5,0 -2.969,1.028 -3.719,1.778 -0.75,0.75 -1.281,1.722 -1.562,2 C 3.947,13.33 3.572,13.646 3.197,13.705 2.822,13.767 2.447,13.58 2.135,13.58 1.877,13.58 1.64,13.723 1.37,14.083 2.186,14.06 2.87,14.39 3.418,14.938 4.543,13.25 6.543,11.702 8.293,11.702 l 2.25,0 c 1.75,0 3.75,1.549 4.875,3.236 0.813,-0.813 1.916,-1.166 3.313,-0.563 z"
           id="path17"
           inkscape:connector-curvature="0"
           style="opacity:0.16000001" />
        <path
           d="M 5.628,2.006 C 5.628,2.52 4.89,3.053 4.58,3.053 4.018,3.053 3.682,2.48 3.682,1.912 3.682,1.35 4.137,0.891 4.703,0.891 5.265,0.892 5.628,1.443 5.628,2.006 Z"
           id="path19"
           inkscape:connector-curvature="0"
           style="opacity:0.3;fill:#ffffff" />
        <path
           d="m 1.274,12.944 c 0,-0.271 0.083,-0.604 0.271,-0.854 0.258,-0.344 0.82,-0.896 1.083,-1.271 C 2.92,10.403 3.024,10.028 3.087,9.673 3.14,9.385 3.349,9.048 3.566,9.048 c 0.217,0 0.417,0.347 0.417,0.688 0,0.341 -0.1,0.771 -0.354,1.188 -0.271,0.438 -0.729,0.833 -1.062,1.104 -0.338,0.273 -0.564,0.603 -0.647,0.812 -0.054,0.139 -0.188,0.333 -0.396,0.333 -0.227,0 -0.25,-0.108 -0.25,-0.229 z"
           id="path21"
           inkscape:connector-curvature="0"
           style="opacity:0.2;fill:#ffffff" />
        <path
           d="m 12.107,1.257 c 0,-0.444 0.438,-0.646 0.791,-0.688 0.541,-0.062 0.959,-0.125 1.334,-0.125 0.375,0 0.666,0.073 0.666,0.292 0,0.219 -0.358,0.271 -0.688,0.271 -0.33,0 -0.874,0.114 -1.124,0.208 -0.25,0.097 -0.354,0.417 -0.604,0.417 -0.229,0 -0.375,-0.167 -0.375,-0.375 z"
           id="path23"
           inkscape:connector-curvature="0"
           style="opacity:0.2;fill:#ffffff" />
      </g>
      <rect
         height="3.9370079"
         x="14.770633"
         y="27.722937"
         width="3.9370079"
         id="rect3861"
         style="fill:#b3b3b3" />
      <path
         d="m 17.716535,33.661415 c 0,0.978457 -0.793196,1.771654 -1.771654,1.771654 -0.978457,0 -1.771653,-0.793197 -1.771653,-1.771654 0,-0.978457 0.793196,-1.771653 1.771653,-1.771653 0.978458,0 1.771654,0.793196 1.771654,1.771653 z"
         id="path3863"
         transform="matrix(1.1111111,0,0,1.1111111,-8.5976943,-7.7101286)"
         inkscape:connector-curvature="0"
         style="fill:#b3b3b3" />
    </g>
    <text
       x="32.28838"
       y="-35.621315"
       id="tspan11445-6-0"
       font-size="3.2"
       transform="matrix(1.25,0,0,1.25,-23.863159,1027.7671)"
       style="font-size:3.20000005px;font-family:OCRA;fill:#ffffff">Temperature Sensor</text>
  </g>
</svg>
