<?xml version="1.0" encoding="UTF-8" standalone="no"?>
<svg
   xmlns:dc="http://purl.org/dc/elements/1.1/"
   xmlns:cc="http://creativecommons.org/ns#"
   xmlns:rdf="http://www.w3.org/1999/02/22-rdf-syntax-ns#"
   xmlns:svg="http://www.w3.org/2000/svg"
   xmlns="http://www.w3.org/2000/svg"
   xmlns:sodipodi="http://sodipodi.sourceforge.net/DTD/sodipodi-0.dtd"
   xmlns:inkscape="http://www.inkscape.org/namespaces/inkscape"
   version="1.1"
   width="83"
   height="214"
   id="svg2"
   inkscape:version="0.91 r13725"
   sodipodi:docname="grove_smart_relay.svg">
  <defs
     id="defs70" />
  <sodipodi:namedview
     pagecolor="#ffffff"
     bordercolor="#666666"
     borderopacity="1"
     objecttolerance="10"
     gridtolerance="10"
     guidetolerance="10"
     inkscape:pageopacity="0"
     inkscape:pageshadow="2"
     inkscape:window-width="683"
     inkscape:window-height="837"
     id="namedview68"
     showgrid="false"
     inkscape:zoom="1.3888888"
     inkscape:cx="27.890117"
     inkscape:cy="-22.773629"
     inkscape:window-x="748"
     inkscape:window-y="0"
     inkscape:window-maximized="0"
     inkscape:current-layer="svg2"
     showguides="true"
     inkscape:guide-bbox="true"
     borderlayer="true" />
  <metadata
     id="metadata13579">
    <rdf:RDF>
      <cc:Work
         rdf:about="">
        <dc:format>image/svg+xml</dc:format>
        <dc:type
           rdf:resource="http://purl.org/dc/dcmitype/StillImage" />
        <dc:title></dc:title>
      </cc:Work>
    </rdf:RDF>
  </metadata>
  <g
     id="g3423"
     transform="matrix(0,-1,1,0,-131.19994,214.00006)">
    <g
       id="layer1"
       transform="translate(0,-838.3597)" />
    <g
       transform="translate(2.4999991e-7,113.1)"
       id="g18500">
      <g
         id="g4758"
         transform="matrix(0,1,-1,0,1054.566,24.07812)">
        <path
           id="rect2992"
           d="m 2.8125185,907.10968 c -1.5704,0 -2.8125,1.2421 -2.8125,2.8125 l 0,27 c -3.0997,0 -5.625,2.4941 -5.625,5.5938 0,3.0996 2.5253,5.625 5.625,5.625 l 0,12.0937 0,14.90627 0,5.625 0,11.34375 0,15.6562 c 3.0997,0 5.5937,2.5254 5.5937,5.625 0,3.0997 -2.494,5.5938 -5.5937,5.5938 l 0,27 c 0,1.5704 1.2421,2.8125 2.8125,2.8125 l 27.0000005,0 c 0,3.0996 2.52535,5.625 5.625,5.625 3.099659,0 5.59375,-2.5254 5.59375,-5.625 l 26.999969,0 c 1.5704,0 2.8125,-1.2421 2.8125,-2.8125 l 0,-27 c -3.0996,0 -5.5937,-2.4941 -5.5937,-5.5938 0,-3.0996 2.4941,-5.625 5.5937,-5.625 l 0,-12.0937 0,-14.90625 0,-5.625 0,-18.43747 0,-8.5625 c 3.0996,0 5.625,-2.5254 5.625,-5.625 0,-3.0997 -2.5254,-5.5938 -5.625,-5.5938 l 0,-27 c 0,-1.5704 -1.2421,-2.8125 -2.8125,-2.8125 l -26.999969,0 c 0,3.0997 -2.494051,5.5938 -5.59375,5.5938 -3.099601,0 -5.625,-2.4941 -5.625,-5.5938 l -27.0000005,0 z m -2.8125,32.1563 c 1.7945,0 3.25,1.4554 3.25,3.25 0,1.7945 -1.4555,3.25 -3.25,3.25 -1.7945,0 -3.25,-1.4555 -3.25,-3.25 0,-1.7946 1.4555,-3.25 3.25,-3.25 z m 70.8437195,0 c 1.7945,0 3.25,1.4554 3.25,3.25 0,1.7945 -1.4555,3.25 -3.25,3.25 -1.794599,0 -3.2187,-1.4555 -3.2187,-3.25 0,-1.7946 1.4241,-3.25 3.2187,-3.25 z M 35.437509,1045.5785 c 1.79454,0 3.25,1.4241 3.25,3.2187 0,1.7945 -1.45546,3.25 -3.25,3.25 -1.79453,0 -3.25,-1.4555 -3.25,-3.25 0,-1.7946 1.45547,-3.2187 3.25,-3.2187 z"
           inkscape:connector-curvature="0"
           style="fill:#274a88" />
        <g
           id="g3109-1"
           transform="matrix(0,-1.2499976,1.2499976,0,-1261.1794,1062.0649)">
          <g
             id="g33658-1"
             transform="translate(-1.6000031,0)">
            <path
               style="fill:#ffffff"
               inkscape:connector-curvature="0"
               d="m 31.61401,1022.5921 0,4.5426 -1.561524,0 0.01745,-2.9811 -9.10275,0 0,4.9685 -1.561524,0 0,-1.7034 -2.271347,0 0,-4.8266 14.479696,0 z"
               id="path16826-7" />
            <path
               style="fill:#ffffff"
               inkscape:connector-curvature="0"
               d="m 31.61401,1046.6114 0,4.5426 -14.479696,0 0,-4.8265 2.271347,0 0,-1.7035 1.561524,0 0,4.9685 9.085301,0 0,-2.9811 1.561524,0 z"
               id="path16828-7" />
            <path
               style="fill:#ffffff"
               inkscape:connector-curvature="0"
               d="m 20.967185,1049.5925 0,-4.9685 0,-15.5019 0,-4.9685 9.10275,0 -0.01745,2.9811 0,19.4767 0,2.9811 -9.085301,0 z m 3.832871,-20.5271 1.419471,0 0,-1.4196 -1.419471,0 0,1.4196 z m 1.419471,5.6322 0,-1.4196 -1.419471,0 0,1.4196 1.419471,0 z m 0,9.9831 -1.419471,0 0,1.4196 1.419471,0 0,-1.4196 z m -1.419471,-4.2587 1.419471,0 0,-1.4196 -1.419471,0 0,1.4196 z"
               id="path16830-7" />
            <path
               style="fill:#ffffff"
               inkscape:connector-curvature="0"
               d="m 31.61401,1046.6114 -1.561524,0 0,-19.4767 1.561524,0 0,19.4767 z"
               id="path16832-7" />
            <path
               style="fill:#ffffff"
               inkscape:connector-curvature="0"
               d="m 19.405661,1031.9045 0,-2.7824 1.561524,0 0,15.5019 -1.561524,0 0,-2.7824 0,-9.9371 z"
               id="path16834-3" />
            <path
               style="fill:#dbdbdb"
               inkscape:connector-curvature="0"
               d="m 16.992349,1031.9045 2.413312,0 0,9.9371 -2.413312,0 0,-9.9371 z"
               id="path16836-3" />
            <path
               style="fill:none;stroke:#000000;stroke-width:0.088122;stroke-miterlimit:10"
               inkscape:connector-curvature="0"
               d="m 31.61401,1027.1347 0,-4.5426"
               id="path22208-5"
               stroke-miterlimit="10" />
            <path
               style="fill:none;stroke:#000000;stroke-width:0.088122;stroke-miterlimit:10"
               inkscape:connector-curvature="0"
               d="m 31.61401,1027.1347 -1.561524,0"
               id="path22210-9"
               stroke-miterlimit="10" />
            <path
               style="fill:none;stroke:#000000;stroke-width:0.088122;stroke-miterlimit:10"
               inkscape:connector-curvature="0"
               d="m 30.069935,1024.1536 -0.01745,2.9811"
               id="path22212-9"
               stroke-miterlimit="10" />
            <path
               style="fill:none;stroke:#000000;stroke-width:0.088122;stroke-miterlimit:10"
               inkscape:connector-curvature="0"
               d="m 20.967185,1024.1536 9.10275,0"
               id="path22214-8"
               stroke-miterlimit="10" />
            <path
               style="fill:none;stroke:#000000;stroke-width:0.088122;stroke-miterlimit:10"
               inkscape:connector-curvature="0"
               d="m 20.967185,1029.1221 -1.561524,0"
               id="path22216-1"
               stroke-miterlimit="10" />
            <path
               style="fill:none;stroke:#000000;stroke-width:0.088122;stroke-miterlimit:10"
               inkscape:connector-curvature="0"
               d="m 19.405661,1027.4187 0,1.7034"
               id="path22218-8"
               stroke-miterlimit="10" />
            <path
               style="fill:none;stroke:#000000;stroke-width:0.088122;stroke-miterlimit:10"
               inkscape:connector-curvature="0"
               d="m 31.61401,1046.6114 0,-19.4767"
               id="path22220-2"
               stroke-miterlimit="10" />
            <path
               style="fill:none;stroke:#000000;stroke-width:0.088122;stroke-miterlimit:10"
               inkscape:connector-curvature="0"
               d="m 19.405661,1029.1221 0,2.7824"
               id="path22222-6"
               stroke-miterlimit="10" />
            <path
               style="fill:none;stroke:#000000;stroke-width:0.088122;stroke-miterlimit:10"
               inkscape:connector-curvature="0"
               d="m 17.134314,1022.5921 0,4.8266"
               id="path22240-6"
               stroke-miterlimit="10" />
            <path
               style="fill:none;stroke:#000000;stroke-width:0.088122;stroke-miterlimit:10"
               inkscape:connector-curvature="0"
               d="m 19.405661,1027.4187 -2.271347,0"
               id="path22242-0"
               stroke-miterlimit="10" />
            <path
               style="fill:none;stroke:#000000;stroke-width:0.088122;stroke-miterlimit:10"
               inkscape:connector-curvature="0"
               d="m 19.405661,1031.9045 -2.413312,0"
               id="path22244-3"
               stroke-miterlimit="10" />
            <path
               style="fill:none;stroke:#000000;stroke-width:0.088122;stroke-miterlimit:10"
               inkscape:connector-curvature="0"
               d="m 30.052486,1049.5925 -9.085301,0"
               id="path22246-8"
               stroke-miterlimit="10" />
            <path
               style="fill:none;stroke:#000000;stroke-width:0.088122;stroke-miterlimit:10"
               inkscape:connector-curvature="0"
               d="m 30.052486,1046.6114 0,2.9811"
               id="path22248-0"
               stroke-miterlimit="10" />
            <path
               style="fill:none;stroke:#000000;stroke-width:0.088122;stroke-miterlimit:10"
               inkscape:connector-curvature="0"
               d="m 31.61401,1046.6114 -1.561524,0"
               id="path22250-1"
               stroke-miterlimit="10" />
            <path
               style="fill:none;stroke:#000000;stroke-width:0.088122;stroke-miterlimit:10"
               inkscape:connector-curvature="0"
               d="m 31.61401,1046.6114 0,4.5426"
               id="path22252-2"
               stroke-miterlimit="10" />
            <path
               style="fill:none;stroke:#000000;stroke-width:0.088122;stroke-miterlimit:10"
               inkscape:connector-curvature="0"
               d="m 19.405661,1046.3275 0,-1.7035"
               id="path22254-5"
               stroke-miterlimit="10" />
            <path
               style="fill:none;stroke:#000000;stroke-width:0.088122;stroke-miterlimit:10"
               inkscape:connector-curvature="0"
               d="m 19.405661,1044.624 1.561524,0"
               id="path22256-0"
               stroke-miterlimit="10" />
            <path
               style="fill:none;stroke:#000000;stroke-width:0.088122;stroke-miterlimit:10"
               inkscape:connector-curvature="0"
               d="m 19.405661,1044.624 0,-2.7824"
               id="path22258-9"
               stroke-miterlimit="10" />
            <path
               style="fill:none;stroke:#000000;stroke-width:0.088122;stroke-miterlimit:10"
               inkscape:connector-curvature="0"
               d="m 17.134314,1051.154 0,-4.8265"
               id="path22276-4"
               stroke-miterlimit="10" />
            <path
               style="fill:none;stroke:#000000;stroke-width:0.088122;stroke-miterlimit:10"
               inkscape:connector-curvature="0"
               d="m 19.405661,1046.3275 -2.271347,0"
               id="path22278-7"
               stroke-miterlimit="10" />
            <path
               style="fill:none;stroke:#000000;stroke-width:0.088122;stroke-miterlimit:10"
               inkscape:connector-curvature="0"
               d="m 19.405661,1041.8416 -2.413312,0"
               id="path22280-8"
               stroke-miterlimit="10" />
            <path
               style="fill:none;stroke:#000000;stroke-width:0.088122;stroke-miterlimit:10"
               inkscape:connector-curvature="0"
               d="m 17.134314,1022.5921 14.479696,0"
               id="path29506-3"
               stroke-miterlimit="10" />
            <path
               style="fill:none;stroke:#000000;stroke-width:0.088122;stroke-miterlimit:10"
               inkscape:connector-curvature="0"
               d="m 19.405661,1031.9045 0,9.9371"
               id="path29508-5"
               stroke-miterlimit="10" />
            <path
               style="fill:none;stroke:#000000;stroke-width:0.088122;stroke-miterlimit:10"
               inkscape:connector-curvature="0"
               d="m 31.61401,1051.154 -14.479696,0"
               id="path29510-1"
               stroke-miterlimit="10" />
            <path
               style="fill:none;stroke:#000000;stroke-width:0.088122;stroke-miterlimit:10"
               inkscape:connector-curvature="0"
               d="m 30.052486,1027.1347 0,19.4767"
               id="path29512-2"
               stroke-miterlimit="10" />
          </g>
          <path
             style="fill:#ffe500;stroke:#000000;stroke-width:0.088;stroke-linejoin:round"
             inkscape:connector-curvature="0"
             d="m 23.200053,1029.0654 0,-1.4196 1.419471,0 0,1.4196 -1.419471,0 z"
             id="connector3pin" />
          <path
             style="fill:#ffe500;stroke:#000000;stroke-width:0.088;stroke-linejoin:round"
             inkscape:connector-curvature="0"
             d="m 24.619524,1033.278 0,1.4196 -1.419471,0 0,-1.4196 1.419471,0 z"
             id="connector2pin" />
          <path
             style="fill:#ffe500;stroke:#000000;stroke-width:0.088;stroke-linejoin:round"
             inkscape:connector-curvature="0"
             d="m 23.200053,1039.0024 1.419471,0 0,1.4196 -1.419471,0 0,-1.4196 z"
             id="connector1pin" />
          <path
             style="fill:#ffe500;stroke:#000000;stroke-width:0.088;stroke-linejoin:round"
             inkscape:connector-curvature="0"
             d="m 23.200053,1044.6807 1.419471,0 0,1.4196 -1.419471,0 0,-1.4196 z"
             id="connector0pin" />
        </g>
      </g>
    </g>
    <g
       id="g7-2"
       transform="matrix(0.87278347,0,0,0.87278347,-186.23724,-194.39005)">
      <g
         id="g9-5"
         transform="translate(262.567,80.5748)">
        <g
           id="breadboard_1_-6">
          <g
             id="g12-8">
            <g
               id="g14-4">
              <rect
                 id="rect16-2"
                 height="2.6919999"
                 width="3.1500001"
                 y="377.65799"
                 x="100.683"
                 style="fill:#cdcccc" />
              <rect
                 id="rect18-7"
                 height="2.6889999"
                 width="3.155"
                 y="377.65799"
                 x="29.552"
                 style="fill:#cdcccc" />
              <rect
                 id="rect20-4"
                 height="2.6919999"
                 width="3.1459999"
                 y="377.65799"
                 x="47.333"
                 style="fill:#cdcccc" />
              <rect
                 id="rect22-9"
                 height="1.085"
                 width="3.1500001"
                 y="331.41"
                 x="100.683"
                 style="fill:#cdcccc" />
              <rect
                 id="rect24-6"
                 height="1.087"
                 width="3.155"
                 y="331.41"
                 x="29.552"
                 style="fill:#cdcccc" />
              <rect
                 id="rect26-7"
                 height="1.085"
                 width="3.1459999"
                 y="331.41"
                 x="47.333"
                 style="fill:#cdcccc" />
              <rect
                 height="2.6889999"
                 width="3.155"
                 y="377.65799"
                 x="29.552"
                 id="connector0pin_1_-0"
                 style="fill:none" />
              <rect
                 height="2.6919999"
                 width="3.1459999"
                 y="377.65799"
                 x="47.333"
                 id="connector1pin_1_-1"
                 style="fill:none" />
              <rect
                 height="2.6919999"
                 width="3.1500001"
                 y="377.65799"
                 x="100.683"
                 id="connector2pin_1_-3"
                 style="fill:none" />
              <rect
                 height="1.085"
                 width="3.1500001"
                 y="331.41"
                 x="100.683"
                 id="connector3pin_1_-6"
                 style="fill:none" />
              <rect
                 height="1.085"
                 width="3.1459999"
                 y="331.41"
                 x="47.333"
                 id="connector4pin_1_-6"
                 style="fill:none" />
              <rect
                 height="1.087"
                 width="3.155"
                 y="331.41"
                 x="29.552"
                 id="connector5pin_1_-6"
                 style="fill:none" />
            </g>
            <g
               id="g34-5">
              <g
                 id="g36-9">
                <path
                   id="path38-3"
                   d="m 111.862,329.141 c 0,1.25 -1.11,2.269 -2.471,2.269 l -85.395,0 c -1.361,0 -2.471,-1.02 -2.471,-2.269 l 0,-25.756 c 0,-1.254 1.109,-2.27 2.471,-2.27 l 85.396,0 c 1.36,0 2.471,1.015 2.471,2.27 l 0,25.756 z"
                   inkscape:connector-curvature="0"
                   style="fill:#1a1a1a" />
                <path
                   id="path40-0"
                   d="m 109.391,301.815 -85.395,0 c -1.361,0 -2.471,1.015 -2.471,2.269 l 0,-0.699 c 0,-1.254 1.109,-2.269 2.471,-2.269 l 85.396,0 0,0.699 z"
                   inkscape:connector-curvature="0"
                   style="fill:#ffffff;fill-opacity:0.1" />
              </g>
              <path
                 id="path42-1"
                 d="m 111.862,375.404 c 0,1.25 -1.11,2.27 -2.471,2.27 l -85.395,0 c -1.361,0 -2.471,-1.02 -2.471,-2.27 l 0,-25.756 c 0,-1.264 1.109,-2.27 2.471,-2.27 l 85.396,0 c 1.36,0 2.471,1.006 2.471,2.27 l 0,25.756 z"
                 inkscape:connector-curvature="0"
                 style="fill:#1a1a1a" />
              <path
                 id="path44-0"
                 d="m 110.313,301.116 -79.189,0 0,8.18 c 0,1.142 -1.018,2.079 -2.262,2.079 l -7.338,0 0,38.694 c 0,0.787 0.699,1.428 1.549,1.428 l 87.239,0 c 0.854,0 1.549,-0.641 1.549,-1.428 l 0,-47.531 c 10e-4,-0.78 -0.694,-1.422 -1.548,-1.422 z"
                 inkscape:connector-curvature="0"
                 style="fill:#333333" />
            </g>
            <g
               id="g46-4"
               transform="translate(6.3496,3.1631)">
              <text
                 id="text48-3"
                 font-size="5.7434"
                 transform="matrix(1.0885,0,0,1,30.8568,305.1322)"
                 style="font-size:5.7434001px;font-family:OCRAStd;fill:#818181">XXXXX</text>
            </g>
            <g
               id="g50-3"
               transform="translate(6.3496,5.6631)">
              <text
                 id="text52-3"
                 font-size="5.7434"
                 transform="matrix(1.0885,0,0,1,30.8568,308.3046)"
                 style="font-size:5.7434001px;font-family:OCRAStd;fill:#818181">XXXXXX</text>
            </g>
          </g>
          <g
             id="g54-6">
            <g
               id="g56-3"
               transform="translate(4.1851,17.8525)">
              <text
                 id="text58-6"
                 font-size="5.7434"
                 transform="matrix(1.0885,0,0,1,27.6757,323.7758)"
                 style="font-size:5.7434001px;font-family:OCRAStd;fill:#818181">XXXXXXXXXXXX</text>
            </g>
            <g
               id="g60-8"
               transform="translate(4.1851,20.3525)">
              <text
                 id="text62-9"
                 font-size="5.7434"
                 transform="matrix(1.0885,0,0,1,27.6757,326.9487)"
                 style="font-size:5.7434001px;font-family:OCRAStd;fill:#818181">XXXXXXXXXXXXXXX</text>
            </g>
          </g>
          <path
             id="path64-7"
             d="m 27.998,343.332 c 0,1.144 -1.019,2.079 -2.263,2.079 l -0.004,0 c -1.24,0 -2.264,-0.936 -2.264,-2.079 l 0,-27.421 c 0,-1.141 1.019,-2.078 2.264,-2.078 l 0.004,0 c 1.245,0 2.263,0.935 2.263,2.078 l 0,27.421 z"
             inkscape:connector-curvature="0"
             style="fill:#b4b4b4" />
          <path
             id="path66-5"
             d="m 31.124,301.826 79.188,0 c 0.855,0 1.55,0.643 1.55,1.423 l 0,-0.71 c 0,-0.78 -0.694,-1.422 -1.55,-1.422 l -79.188,0 0,0.709 z"
             inkscape:connector-curvature="0"
             style="fill:#ffffff;fill-opacity:0.1" />
          <path
             id="path68-3"
             d="m 21.525,312.085 7.337,0 c 1.245,0 2.263,-0.936 2.263,-2.078 l 0,-0.71 c 0,1.141 -1.018,2.079 -2.263,2.079 l -7.337,0 0,0.709 z"
             inkscape:connector-curvature="0"
             style="fill:#ffffff;fill-opacity:0.1" />
          <path
             id="path70-4"
             d="m 21.525,374.677 c 0,1.252 1.109,2.269 2.471,2.269 l 85.396,0 c 1.36,0 2.471,-1.017 2.471,-2.269 l 0,0.727 c 0,1.25 -1.11,2.27 -2.471,2.27 l -85.396,0 c -1.361,0 -2.471,-1.02 -2.471,-2.27 l 0,-0.727 z"
             inkscape:connector-curvature="0"
             style="fill:#010101;fill-opacity:0.7" />
          <path
             id="path72-7"
             d="m 111.862,349.343 c 0,0.79 -0.694,1.428 -1.55,1.428 l -87.239,0 c -0.849,0 -1.548,-0.638 -1.548,-1.428 l 0,0.727 c 0,0.787 0.699,1.428 1.548,1.428 l 87.239,0 c 0.855,0 1.55,-0.641 1.55,-1.428 l 0,-0.727 z"
             inkscape:connector-curvature="0"
             style="fill:#010101;fill-opacity:0.1" />
        </g>
      </g>
    </g>
    <g
       id="g74-2"
       transform="matrix(0.87278347,0,0,0.87278347,-179.75724,-195.83005)">
      <path
         id="path76-4"
         d="m 272.033,448.422 -29.36,0 0,-16.23 29.36,0 0,16.23 z m -22.197,-13.249 c -2.835,0 -5.134,2.299 -5.134,5.134 0,2.836 2.299,5.134 5.134,5.134 2.836,0 5.134,-2.298 5.134,-5.134 0,-2.835 -2.298,-5.134 -5.134,-5.134 z m 15.002,0 c -2.836,0 -5.134,2.299 -5.134,5.134 0,2.836 2.298,5.134 5.134,5.134 2.835,0 5.134,-2.298 5.134,-5.134 0,-2.835 -2.299,-5.134 -5.134,-5.134 z"
         inkscape:connector-curvature="0"
         style="fill:#9ace81" />
      <g
         id="g78-4">
        <circle
           id="circle80-2"
           r="5.1339998"
           cy="440.30701"
           cx="249.836"
           style="fill:#c9c9c9" />
        <path
           id="path82-9"
           d="m 249.836,435.173 c 1.346,-0.019 2.692,0.524 3.656,1.478 0.977,0.938 1.579,2.275 1.602,3.656 0.037,1.377 -0.497,2.776 -1.477,3.781 -0.978,1.004 -2.37,1.597 -3.781,1.602 -1.411,-0.003 -2.804,-0.598 -3.781,-1.602 -0.981,-1.003 -1.515,-2.404 -1.479,-3.781 0.023,-1.381 0.626,-2.719 1.604,-3.656 0.964,-0.954 2.31,-1.497 3.656,-1.478 z m 0,0 c -1.347,0.006 -2.672,0.571 -3.604,1.53 -0.934,0.958 -1.44,2.292 -1.403,3.604 0.01,2.671 2.407,4.968 5.008,4.885 2.602,0.084 5,-2.213 5.01,-4.885 0.035,-1.313 -0.471,-2.646 -1.405,-3.604 -0.934,-0.959 -2.259,-1.524 -3.606,-1.53 z"
           inkscape:connector-curvature="0"
           style="fill:#010101" />
      </g>
      <g
         id="g84-0">
        <circle
           id="circle86-2"
           r="5.1339998"
           cy="440.30701"
           cx="264.83801"
           style="fill:#c9c9c9" />
        <path
           id="path88-0"
           d="m 264.838,435.173 c 1.346,-0.019 2.692,0.524 3.656,1.478 0.977,0.939 1.579,2.272 1.602,3.659 0.037,1.371 -0.497,2.775 -1.477,3.778 -0.979,1.004 -2.37,1.597 -3.781,1.602 -1.411,-0.003 -2.804,-0.598 -3.781,-1.602 -0.981,-1.003 -1.515,-2.404 -1.479,-3.781 0.023,-1.381 0.626,-2.719 1.604,-3.656 0.964,-0.955 2.31,-1.497 3.656,-1.478 z m 0,0 c -1.347,0.006 -2.672,0.571 -3.604,1.529 -0.934,0.959 -1.44,2.292 -1.403,3.604 0.01,2.671 2.406,4.968 5.008,4.885 2.601,0.083 5,-2.21 5.01,-4.888 0.035,-1.306 -0.471,-2.645 -1.405,-3.602 -0.934,-0.957 -2.259,-1.522 -3.606,-1.528 z"
           inkscape:connector-curvature="0"
           style="fill:#010101" />
      </g>
    </g>
    <rect
       id="rect90-3"
       height="8.9919424"
       width="3.9535484"
       y="156.41893"
       x="54.024818"
       style="fill:#f2632d" />
    <polyline
       id="polyline92-3"
       points="242.667,432.107 244.489,426.08 272.028,426.08 272.028,432.107  "
       style="fill:#508a50"
       transform="matrix(0.87278347,0,0,0.87278347,-179.75724,-195.83005)" />
    <polyline
       id="polyline94-0"
       points="242.667,448.506 244.489,454.533 272.028,454.533 272.028,448.506  "
       style="fill:#508a50"
       transform="matrix(0.87278347,0,0,0.87278347,-179.75724,-195.83005)" />
    <line
       id="line96-8"
       y2="188.46263"
       x2="42.776371"
       y1="188.46263"
       x1="33.81461"
       stroke-miterlimit="10"
       style="fill:none;stroke:#010101;stroke-width:1.74556696;stroke-miterlimit:10" />
    <line
       id="line98-5"
       y2="188.46263"
       x2="55.86985"
       y1="188.46263"
       x1="46.908119"
       stroke-miterlimit="10"
       style="fill:none;stroke:#010101;stroke-width:1.74556696;stroke-miterlimit:10" />
  </g>
</svg>
