<?xml version="1.0" encoding="UTF-8" standalone="no"?>
<svg
   xmlns:dc="http://purl.org/dc/elements/1.1/"
   xmlns:cc="http://creativecommons.org/ns#"
   xmlns:rdf="http://www.w3.org/1999/02/22-rdf-syntax-ns#"
   xmlns:svg="http://www.w3.org/2000/svg"
   xmlns="http://www.w3.org/2000/svg"
   xmlns:sodipodi="http://sodipodi.sourceforge.net/DTD/sodipodi-0.dtd"
   xmlns:inkscape="http://www.inkscape.org/namespaces/inkscape"
   height="214"
   width="81"
   version="1.1"
   id="svg2"
   inkscape:version="0.91 r13725"
   sodipodi:docname="grove_infrared_receiver.svg">
  <defs
     id="defs53" />
  <sodipodi:namedview
     pagecolor="#ffffff"
     bordercolor="#666666"
     borderopacity="1"
     objecttolerance="10"
     gridtolerance="10"
     guidetolerance="10"
     inkscape:pageopacity="0"
     inkscape:pageshadow="2"
     inkscape:window-width="640"
     inkscape:window-height="480"
     id="namedview51"
     showgrid="false"
     inkscape:zoom="3.2777778"
     inkscape:cx="40.5"
     inkscape:cy="36"
     inkscape:window-x="0"
     inkscape:window-y="0"
     inkscape:window-maximized="0"
     inkscape:current-layer="svg2" />
  <metadata
     id="metadata13579">
    <rdf:RDF>
      <cc:Work
         rdf:about="">
        <dc:format>image/svg+xml</dc:format>
        <dc:type
           rdf:resource="http://purl.org/dc/dcmitype/StillImage" />
        <dc:title></dc:title>
      </cc:Work>
    </rdf:RDF>
  </metadata>
  <g
     transform="translate(-2.01562,-831.83606)"
     id="g3075">
    <path
       d="m 1.46874,1009.8204 c 0,3.0996 2.5254,5.625 5.625,5.625 l 0,27 c 0,1.5704 1.2421,2.8125 2.8125,2.8125 l 27,0 c 0,-3.0997 2.5254,-5.5938 5.625,-5.5938 3.0997,0 5.5938,2.4941 5.5938,5.5938 l 26.99997,0 c 1.57039,0 2.8125,-1.2421 2.8125,-2.8125 l 0,-27 c 3.09966,0 5.625,-2.5254 5.625,-5.625 0,-3.0997 -2.52534,-5.5938 -5.625,-5.5938 l 0,-26.99998 c 0,-1.57039 -1.24211,-2.8125 -2.8125,-2.8125 l -26.99997,0 c 0,3.09966 -2.4941,5.59375 -5.5938,5.59375 -3.0996,0 -5.625,-2.49409 -5.625,-5.59375 l -27,0 c -1.5704,0 -2.8125,1.24211 -2.8125,2.8125 l 0,26.99998 c -3.0996,0 -5.625,2.4941 -5.625,5.5938 z m 2.375,0 c 0,-1.7946 1.4555,-3.25 3.25,-3.25 1.7946,0 3.25,1.4554 3.25,3.25 0,1.7945 -1.4554,3.25 -3.25,3.25 -1.7945,0 -3.25,-1.4555 -3.25,-3.25 z m 70.87502,0 c 0,-1.7946 1.42421,-3.25 3.21875,-3.25 1.79454,0 3.25,1.4554 3.25,3.25 0,1.7945 -1.45546,3.25 -3.25,3.25 -1.79454,0 -3.21875,-1.4555 -3.21875,-3.25 z"
       id="rect2992"
       inkscape:connector-curvature="0"
       style="fill:#274a88" />
    <g
       id="g3109"
       transform="matrix(0,-1.2499976,1.2499976,0,-1253.5732,1057.9114)">
      <g
         id="g33658-1"
         transform="translate(-1.6000031,0)">
        <path
           d="m 31.61401,1022.5921 0,4.5426 -1.561524,0 0.01745,-2.9811 -9.10275,0 0,4.9685 -1.561524,0 0,-1.7034 -2.271347,0 0,-4.8266 14.479696,0 z"
           id="path16826-7"
           inkscape:connector-curvature="0"
           style="fill:#ffffff" />
        <path
           d="m 31.61401,1046.6114 0,4.5426 -14.479696,0 0,-4.8265 2.271347,0 0,-1.7035 1.561524,0 0,4.9685 9.085301,0 0,-2.9811 1.561524,0 z"
           id="path16828-7"
           inkscape:connector-curvature="0"
           style="fill:#ffffff" />
        <path
           d="m 20.967185,1049.5925 0,-4.9685 0,-15.5019 0,-4.9685 9.10275,0 -0.01745,2.9811 0,19.4767 0,2.9811 -9.085301,0 z m 3.832871,-20.5271 1.419471,0 0,-1.4196 -1.419471,0 0,1.4196 z m 1.419471,5.6322 0,-1.4196 -1.419471,0 0,1.4196 1.419471,0 z m 0,9.9831 -1.419471,0 0,1.4196 1.419471,0 0,-1.4196 z m -1.419471,-4.2587 1.419471,0 0,-1.4196 -1.419471,0 0,1.4196 z"
           id="path16830-7"
           inkscape:connector-curvature="0"
           style="fill:#ffffff" />
        <path
           d="m 31.61401,1046.6114 -1.561524,0 0,-19.4767 1.561524,0 0,19.4767 z"
           id="path16832-7"
           inkscape:connector-curvature="0"
           style="fill:#ffffff" />
        <path
           d="m 19.405661,1031.9045 0,-2.7824 1.561524,0 0,15.5019 -1.561524,0 0,-2.7824 0,-9.9371 z"
           id="path16834-3"
           inkscape:connector-curvature="0"
           style="fill:#ffffff" />
        <path
           d="m 16.992349,1031.9045 2.413312,0 0,9.9371 -2.413312,0 0,-9.9371 z"
           id="path16836-3"
           inkscape:connector-curvature="0"
           style="fill:#dbdbdb" />
        <path
           d="m 31.61401,1027.1347 0,-4.5426"
           id="path22208-5"
           stroke-miterlimit="10"
           inkscape:connector-curvature="0"
           style="fill:none;stroke:#000000;stroke-width:0.088122;stroke-miterlimit:10" />
        <path
           d="m 31.61401,1027.1347 -1.561524,0"
           id="path22210-9"
           stroke-miterlimit="10"
           inkscape:connector-curvature="0"
           style="fill:none;stroke:#000000;stroke-width:0.088122;stroke-miterlimit:10" />
        <path
           d="m 30.069935,1024.1536 -0.01745,2.9811"
           id="path22212-9"
           stroke-miterlimit="10"
           inkscape:connector-curvature="0"
           style="fill:none;stroke:#000000;stroke-width:0.088122;stroke-miterlimit:10" />
        <path
           d="m 20.967185,1024.1536 9.10275,0"
           id="path22214-8"
           stroke-miterlimit="10"
           inkscape:connector-curvature="0"
           style="fill:none;stroke:#000000;stroke-width:0.088122;stroke-miterlimit:10" />
        <path
           d="m 20.967185,1029.1221 -1.561524,0"
           id="path22216-1"
           stroke-miterlimit="10"
           inkscape:connector-curvature="0"
           style="fill:none;stroke:#000000;stroke-width:0.088122;stroke-miterlimit:10" />
        <path
           d="m 19.405661,1027.4187 0,1.7034"
           id="path22218-8"
           stroke-miterlimit="10"
           inkscape:connector-curvature="0"
           style="fill:none;stroke:#000000;stroke-width:0.088122;stroke-miterlimit:10" />
        <path
           d="m 31.61401,1046.6114 0,-19.4767"
           id="path22220-2"
           stroke-miterlimit="10"
           inkscape:connector-curvature="0"
           style="fill:none;stroke:#000000;stroke-width:0.088122;stroke-miterlimit:10" />
        <path
           d="m 19.405661,1029.1221 0,2.7824"
           id="path22222-6"
           stroke-miterlimit="10"
           inkscape:connector-curvature="0"
           style="fill:none;stroke:#000000;stroke-width:0.088122;stroke-miterlimit:10" />
        <path
           d="m 17.134314,1022.5921 0,4.8266"
           id="path22240-6"
           stroke-miterlimit="10"
           inkscape:connector-curvature="0"
           style="fill:none;stroke:#000000;stroke-width:0.088122;stroke-miterlimit:10" />
        <path
           d="m 19.405661,1027.4187 -2.271347,0"
           id="path22242-0"
           stroke-miterlimit="10"
           inkscape:connector-curvature="0"
           style="fill:none;stroke:#000000;stroke-width:0.088122;stroke-miterlimit:10" />
        <path
           d="m 19.405661,1031.9045 -2.413312,0"
           id="path22244-3"
           stroke-miterlimit="10"
           inkscape:connector-curvature="0"
           style="fill:none;stroke:#000000;stroke-width:0.088122;stroke-miterlimit:10" />
        <path
           d="m 30.052486,1049.5925 -9.085301,0"
           id="path22246-8"
           stroke-miterlimit="10"
           inkscape:connector-curvature="0"
           style="fill:none;stroke:#000000;stroke-width:0.088122;stroke-miterlimit:10" />
        <path
           d="m 30.052486,1046.6114 0,2.9811"
           id="path22248-0"
           stroke-miterlimit="10"
           inkscape:connector-curvature="0"
           style="fill:none;stroke:#000000;stroke-width:0.088122;stroke-miterlimit:10" />
        <path
           d="m 31.61401,1046.6114 -1.561524,0"
           id="path22250-1"
           stroke-miterlimit="10"
           inkscape:connector-curvature="0"
           style="fill:none;stroke:#000000;stroke-width:0.088122;stroke-miterlimit:10" />
        <path
           d="m 31.61401,1046.6114 0,4.5426"
           id="path22252-2"
           stroke-miterlimit="10"
           inkscape:connector-curvature="0"
           style="fill:none;stroke:#000000;stroke-width:0.088122;stroke-miterlimit:10" />
        <path
           d="m 19.405661,1046.3275 0,-1.7035"
           id="path22254-5"
           stroke-miterlimit="10"
           inkscape:connector-curvature="0"
           style="fill:none;stroke:#000000;stroke-width:0.088122;stroke-miterlimit:10" />
        <path
           d="m 19.405661,1044.624 1.561524,0"
           id="path22256-0"
           stroke-miterlimit="10"
           inkscape:connector-curvature="0"
           style="fill:none;stroke:#000000;stroke-width:0.088122;stroke-miterlimit:10" />
        <path
           d="m 19.405661,1044.624 0,-2.7824"
           id="path22258-9"
           stroke-miterlimit="10"
           inkscape:connector-curvature="0"
           style="fill:none;stroke:#000000;stroke-width:0.088122;stroke-miterlimit:10" />
        <path
           d="m 17.134314,1051.154 0,-4.8265"
           id="path22276-4"
           stroke-miterlimit="10"
           inkscape:connector-curvature="0"
           style="fill:none;stroke:#000000;stroke-width:0.088122;stroke-miterlimit:10" />
        <path
           d="m 19.405661,1046.3275 -2.271347,0"
           id="path22278-7"
           stroke-miterlimit="10"
           inkscape:connector-curvature="0"
           style="fill:none;stroke:#000000;stroke-width:0.088122;stroke-miterlimit:10" />
        <path
           d="m 19.405661,1041.8416 -2.413312,0"
           id="path22280-8"
           stroke-miterlimit="10"
           inkscape:connector-curvature="0"
           style="fill:none;stroke:#000000;stroke-width:0.088122;stroke-miterlimit:10" />
        <path
           d="m 17.134314,1022.5921 14.479696,0"
           id="path29506-3"
           stroke-miterlimit="10"
           inkscape:connector-curvature="0"
           style="fill:none;stroke:#000000;stroke-width:0.088122;stroke-miterlimit:10" />
        <path
           d="m 19.405661,1031.9045 0,9.9371"
           id="path29508-5"
           stroke-miterlimit="10"
           inkscape:connector-curvature="0"
           style="fill:none;stroke:#000000;stroke-width:0.088122;stroke-miterlimit:10" />
        <path
           d="m 31.61401,1051.154 -14.479696,0"
           id="path29510-1"
           stroke-miterlimit="10"
           inkscape:connector-curvature="0"
           style="fill:none;stroke:#000000;stroke-width:0.088122;stroke-miterlimit:10" />
        <path
           d="m 30.052486,1027.1347 0,19.4767"
           id="path29512-2"
           stroke-miterlimit="10"
           inkscape:connector-curvature="0"
           style="fill:none;stroke:#000000;stroke-width:0.088122;stroke-miterlimit:10" />
      </g>
      <path
         d="m 23.200053,1029.0654 0,-1.4196 1.419471,0 0,1.4196 -1.419471,0 z"
         id="path40"
         inkscape:connector-curvature="0"
         style="fill:#ffe500;stroke:#000000;stroke-width:0.088;stroke-linejoin:round" />
      <path
         d="m 24.619524,1033.278 0,1.4196 -1.419471,0 0,-1.4196 1.419471,0 z"
         id="connector3pin"
         inkscape:connector-curvature="0"
         style="fill:#ffe500;stroke:#000000;stroke-width:0.088;stroke-linejoin:round" />
      <path
         d="m 23.200053,1039.0024 1.419471,0 0,1.4196 -1.419471,0 0,-1.4196 z"
         id="connector1pin"
         inkscape:connector-curvature="0"
         style="fill:#ffe500;stroke:#000000;stroke-width:0.088;stroke-linejoin:round" />
      <path
         d="m 23.200053,1044.6807 1.419471,0 0,1.4196 -1.419471,0 0,-1.4196 z"
         id="connector0pin"
         inkscape:connector-curvature="0"
         style="fill:#ffe500;stroke:#000000;stroke-width:0.088;stroke-linejoin:round" />
    </g>
    <text
       x="33.579144"
       y="-29.868372"
       id="tspan11445"
       font-size="3.2"
       transform="matrix(0,-1.25,1.25,0,92.616794,1061.3506)"
       style="font-size:3.20000005px;font-family:OCRA;fill:#ffffff">GND</text>
    <text
       x="33.579144"
       y="-35.621315"
       id="tspan11445-6"
       font-size="3.2"
       transform="matrix(0,-1.25,1.25,0,92.616794,1061.3506)"
       style="font-size:3.20000005px;font-family:OCRA;fill:#ffffff">VCC</text>
    <text
       x="55.979122"
       y="-41.37426"
       id="tspan11445-1"
       font-size="3.2"
       transform="matrix(0,-1.25,1.25,0,92.616794,1089.3506)"
       style="font-size:3.20000005px;font-family:OCRA;fill:#ffffff">RX</text>
    <text
       x="33.579144"
       y="-47.127209"
       id="tspan11445-7"
       font-size="3.2"
       transform="matrix(0,-1.25,1.25,0,92.616794,1061.3506)"
       style="font-size:3.20000005px;font-family:OCRA;fill:#ffffff">NC</text>
    <text
       x="30.606731"
       y="-35.621315"
       id="tspan11445-6-0"
       font-size="3.2"
       transform="matrix(1.25,0,0,1.25,-20.31579,1044.8728)"
       style="font-size:3.20000005px;font-family:OCRA;fill:#ffffff">Infrared Receiver</text>
    <path
       d="m 30.685545,991.66682 0,-9.46746 c 0,0 4.714983,0 4.714983,0 0,0 1.230712,-4.70577 6.896648,-4.70577 5.665955,0 6.891664,4.70577 6.891664,4.70577 l 5.164986,0 0,9.46658 -23.668281,0 z"
       id="0.3.0"
       inkscape:connector-curvature="0"
       style="fill:#1a1a1a" />
  </g>
</svg>
