<?xml version="1.0" encoding="UTF-8" standalone="no"?>
<svg
   xmlns:dc="http://purl.org/dc/elements/1.1/"
   xmlns:cc="http://creativecommons.org/ns#"
   xmlns:rdf="http://www.w3.org/1999/02/22-rdf-syntax-ns#"
   xmlns:svg="http://www.w3.org/2000/svg"
   xmlns="http://www.w3.org/2000/svg"
   xmlns:sodipodi="http://sodipodi.sourceforge.net/DTD/sodipodi-0.dtd"
   xmlns:inkscape="http://www.inkscape.org/namespaces/inkscape"
   version="1.1"
   width="83"
   height="214"
   id="svg2"
   inkscape:version="0.91 r13725"
   sodipodi:docname="grove_temperature_humidity_sensor.svg">
  <defs
     id="defs70" />
  <sodipodi:namedview
     pagecolor="#ffffff"
     bordercolor="#666666"
     borderopacity="1"
     objecttolerance="10"
     gridtolerance="10"
     guidetolerance="10"
     inkscape:pageopacity="0"
     inkscape:pageshadow="2"
     inkscape:window-width="683"
     inkscape:window-height="837"
     id="namedview68"
     showgrid="false"
     inkscape:zoom="2.7777777"
     inkscape:cx="84.791582"
     inkscape:cy="73.053736"
     inkscape:window-x="748"
     inkscape:window-y="0"
     inkscape:window-maximized="0"
     inkscape:current-layer="svg2"
     showguides="true"
     inkscape:guide-bbox="true" />
  <metadata
     id="metadata13579">
    <rdf:RDF>
      <cc:Work
         rdf:about="">
        <dc:format>image/svg+xml</dc:format>
        <dc:type
           rdf:resource="http://purl.org/dc/dcmitype/StillImage" />
        <dc:title></dc:title>
      </cc:Work>
    </rdf:RDF>
  </metadata>
  <g
     id="g3504"
     transform="matrix(0,-1,1,0,-0.19994591,213.64005)">
    <g
       id="layer1"
       transform="translate(0,-969.3597)" />
    <g
       transform="translate(0,-17.9)"
       id="g18500">
      <g
         id="g4758"
         transform="matrix(0,1,-1,0,1054.566,24.07812)">
        <path
           id="rect2992"
           d="M 2.8125,-64.25 C 1.2421101,-64.25 0,-63.00789 0,-61.4375 l 0,27 c -3.0996601,0 -5.625,2.4941 -5.625,5.59375 0,3.09966 2.5253399,5.625 5.625,5.625 L 0,-11.125 0,3.78125 0,9.40625 0,20.75 0,36.40625 c 3.0996591,0 5.59375,2.5254 5.59375,5.625 0,3.0997 -2.4940909,5.59375 -5.59375,5.59375 l 0,27 c 0,1.5704 1.2421062,2.8125 2.8125,2.8125 l 27,0 c 0,3.0996 2.525341,5.625 5.625,5.625 3.099659,0 5.59375,-2.5254 5.59375,-5.625 l 27,0 c 1.570394,0 2.8125,-1.2421 2.8125,-2.8125 l 0,-27 c -3.099659,0 -5.59375,-2.49405 -5.59375,-5.59375 0,-3.0996 2.494091,-5.625 5.59375,-5.625 l 0,-12.09375 0,-14.90625 0,-5.625 0,-18.4375 0,-8.5625 c 3.0996,0 5.625,-2.52534 5.625,-5.625 0,-3.09965 -2.5254,-5.59375 -5.625,-5.59375 l 0,-27 c 0,-1.57039 -1.2421,-2.8125 -2.8125,-2.8125 l -27,0 c 0,3.09966 -2.49405,5.59375 -5.59375,5.59375 -3.0996,0 -5.625,-2.49409 -5.625,-5.59375 l -27,0 z M 0,-32.09375 c 1.7945401,0 3.25,1.45547 3.25,3.25 0,1.79454 -1.4554599,3.25 -3.25,3.25 -1.79454,0 -3.25,-1.45546 -3.25,-3.25 0,-1.79453 1.45546,-3.25 3.25,-3.25 z m 70.84375,0 c 1.7945,0 3.25,1.45547 3.25,3.25 0,1.79454 -1.4555,3.25 -3.25,3.25 -1.7946,0 -3.21875,-1.45546 -3.21875,-3.25 0,-1.79453 1.42415,-3.25 3.21875,-3.25 z M 35.4375,74.21875 c 1.794539,0 3.25,1.42415 3.25,3.21875 0,1.7945 -1.455461,3.25 -3.25,3.25 -1.794539,0 -3.25,-1.4555 -3.25,-3.25 0,-1.7946 1.455461,-3.21875 3.25,-3.21875 z"
           transform="translate(0,971.3597)"
           inkscape:connector-curvature="0"
           style="fill:#274a88" />
        <g
           id="g3109-1"
           transform="matrix(0,-1.2499976,1.2499976,0,-1261.1794,1066.3849)">
          <g
             id="g33658-1"
             transform="translate(-1.6000031,0)">
            <path
               style="fill:#ffffff"
               inkscape:connector-curvature="0"
               d="m 31.61401,1022.5921 0,4.5426 -1.561524,0 0.01745,-2.9811 -9.10275,0 0,4.9685 -1.561524,0 0,-1.7034 -2.271347,0 0,-4.8266 14.479696,0 z"
               id="path16826-7" />
            <path
               style="fill:#ffffff"
               inkscape:connector-curvature="0"
               d="m 31.61401,1046.6114 0,4.5426 -14.479696,0 0,-4.8265 2.271347,0 0,-1.7035 1.561524,0 0,4.9685 9.085301,0 0,-2.9811 1.561524,0 z"
               id="path16828-7" />
            <path
               style="fill:#ffffff"
               inkscape:connector-curvature="0"
               d="m 20.967185,1049.5925 0,-4.9685 0,-15.5019 0,-4.9685 9.10275,0 -0.01745,2.9811 0,19.4767 0,2.9811 -9.085301,0 z m 3.832871,-20.5271 1.419471,0 0,-1.4196 -1.419471,0 0,1.4196 z m 1.419471,5.6322 0,-1.4196 -1.419471,0 0,1.4196 1.419471,0 z m 0,9.9831 -1.419471,0 0,1.4196 1.419471,0 0,-1.4196 z m -1.419471,-4.2587 1.419471,0 0,-1.4196 -1.419471,0 0,1.4196 z"
               id="path16830-7" />
            <path
               style="fill:#ffffff"
               inkscape:connector-curvature="0"
               d="m 31.61401,1046.6114 -1.561524,0 0,-19.4767 1.561524,0 0,19.4767 z"
               id="path16832-7" />
            <path
               style="fill:#ffffff"
               inkscape:connector-curvature="0"
               d="m 19.405661,1031.9045 0,-2.7824 1.561524,0 0,15.5019 -1.561524,0 0,-2.7824 0,-9.9371 z"
               id="path16834-3" />
            <path
               style="fill:#dbdbdb"
               inkscape:connector-curvature="0"
               d="m 16.992349,1031.9045 2.413312,0 0,9.9371 -2.413312,0 0,-9.9371 z"
               id="path16836-3" />
            <path
               style="fill:none;stroke:#000000;stroke-width:0.088122;stroke-miterlimit:10"
               inkscape:connector-curvature="0"
               d="m 31.61401,1027.1347 0,-4.5426"
               id="path22208-5"
               stroke-miterlimit="10" />
            <path
               style="fill:none;stroke:#000000;stroke-width:0.088122;stroke-miterlimit:10"
               inkscape:connector-curvature="0"
               d="m 31.61401,1027.1347 -1.561524,0"
               id="path22210-9"
               stroke-miterlimit="10" />
            <path
               style="fill:none;stroke:#000000;stroke-width:0.088122;stroke-miterlimit:10"
               inkscape:connector-curvature="0"
               d="m 30.069935,1024.1536 -0.01745,2.9811"
               id="path22212-9"
               stroke-miterlimit="10" />
            <path
               style="fill:none;stroke:#000000;stroke-width:0.088122;stroke-miterlimit:10"
               inkscape:connector-curvature="0"
               d="m 20.967185,1024.1536 9.10275,0"
               id="path22214-8"
               stroke-miterlimit="10" />
            <path
               style="fill:none;stroke:#000000;stroke-width:0.088122;stroke-miterlimit:10"
               inkscape:connector-curvature="0"
               d="m 20.967185,1029.1221 -1.561524,0"
               id="path22216-1"
               stroke-miterlimit="10" />
            <path
               style="fill:none;stroke:#000000;stroke-width:0.088122;stroke-miterlimit:10"
               inkscape:connector-curvature="0"
               d="m 19.405661,1027.4187 0,1.7034"
               id="path22218-8"
               stroke-miterlimit="10" />
            <path
               style="fill:none;stroke:#000000;stroke-width:0.088122;stroke-miterlimit:10"
               inkscape:connector-curvature="0"
               d="m 31.61401,1046.6114 0,-19.4767"
               id="path22220-2"
               stroke-miterlimit="10" />
            <path
               style="fill:none;stroke:#000000;stroke-width:0.088122;stroke-miterlimit:10"
               inkscape:connector-curvature="0"
               d="m 19.405661,1029.1221 0,2.7824"
               id="path22222-6"
               stroke-miterlimit="10" />
            <path
               style="fill:none;stroke:#000000;stroke-width:0.088122;stroke-miterlimit:10"
               inkscape:connector-curvature="0"
               d="m 17.134314,1022.5921 0,4.8266"
               id="path22240-6"
               stroke-miterlimit="10" />
            <path
               style="fill:none;stroke:#000000;stroke-width:0.088122;stroke-miterlimit:10"
               inkscape:connector-curvature="0"
               d="m 19.405661,1027.4187 -2.271347,0"
               id="path22242-0"
               stroke-miterlimit="10" />
            <path
               style="fill:none;stroke:#000000;stroke-width:0.088122;stroke-miterlimit:10"
               inkscape:connector-curvature="0"
               d="m 19.405661,1031.9045 -2.413312,0"
               id="path22244-3"
               stroke-miterlimit="10" />
            <path
               style="fill:none;stroke:#000000;stroke-width:0.088122;stroke-miterlimit:10"
               inkscape:connector-curvature="0"
               d="m 30.052486,1049.5925 -9.085301,0"
               id="path22246-8"
               stroke-miterlimit="10" />
            <path
               style="fill:none;stroke:#000000;stroke-width:0.088122;stroke-miterlimit:10"
               inkscape:connector-curvature="0"
               d="m 30.052486,1046.6114 0,2.9811"
               id="path22248-0"
               stroke-miterlimit="10" />
            <path
               style="fill:none;stroke:#000000;stroke-width:0.088122;stroke-miterlimit:10"
               inkscape:connector-curvature="0"
               d="m 31.61401,1046.6114 -1.561524,0"
               id="path22250-1"
               stroke-miterlimit="10" />
            <path
               style="fill:none;stroke:#000000;stroke-width:0.088122;stroke-miterlimit:10"
               inkscape:connector-curvature="0"
               d="m 31.61401,1046.6114 0,4.5426"
               id="path22252-2"
               stroke-miterlimit="10" />
            <path
               style="fill:none;stroke:#000000;stroke-width:0.088122;stroke-miterlimit:10"
               inkscape:connector-curvature="0"
               d="m 19.405661,1046.3275 0,-1.7035"
               id="path22254-5"
               stroke-miterlimit="10" />
            <path
               style="fill:none;stroke:#000000;stroke-width:0.088122;stroke-miterlimit:10"
               inkscape:connector-curvature="0"
               d="m 19.405661,1044.624 1.561524,0"
               id="path22256-0"
               stroke-miterlimit="10" />
            <path
               style="fill:none;stroke:#000000;stroke-width:0.088122;stroke-miterlimit:10"
               inkscape:connector-curvature="0"
               d="m 19.405661,1044.624 0,-2.7824"
               id="path22258-9"
               stroke-miterlimit="10" />
            <path
               style="fill:none;stroke:#000000;stroke-width:0.088122;stroke-miterlimit:10"
               inkscape:connector-curvature="0"
               d="m 17.134314,1051.154 0,-4.8265"
               id="path22276-4"
               stroke-miterlimit="10" />
            <path
               style="fill:none;stroke:#000000;stroke-width:0.088122;stroke-miterlimit:10"
               inkscape:connector-curvature="0"
               d="m 19.405661,1046.3275 -2.271347,0"
               id="path22278-7"
               stroke-miterlimit="10" />
            <path
               style="fill:none;stroke:#000000;stroke-width:0.088122;stroke-miterlimit:10"
               inkscape:connector-curvature="0"
               d="m 19.405661,1041.8416 -2.413312,0"
               id="path22280-8"
               stroke-miterlimit="10" />
            <path
               style="fill:none;stroke:#000000;stroke-width:0.088122;stroke-miterlimit:10"
               inkscape:connector-curvature="0"
               d="m 17.134314,1022.5921 14.479696,0"
               id="path29506-3"
               stroke-miterlimit="10" />
            <path
               style="fill:none;stroke:#000000;stroke-width:0.088122;stroke-miterlimit:10"
               inkscape:connector-curvature="0"
               d="m 19.405661,1031.9045 0,9.9371"
               id="path29508-5"
               stroke-miterlimit="10" />
            <path
               style="fill:none;stroke:#000000;stroke-width:0.088122;stroke-miterlimit:10"
               inkscape:connector-curvature="0"
               d="m 31.61401,1051.154 -14.479696,0"
               id="path29510-1"
               stroke-miterlimit="10" />
            <path
               style="fill:none;stroke:#000000;stroke-width:0.088122;stroke-miterlimit:10"
               inkscape:connector-curvature="0"
               d="m 30.052486,1027.1347 0,19.4767"
               id="path29512-2"
               stroke-miterlimit="10" />
          </g>
          <path
             style="fill:#ffe500;stroke:#000000;stroke-width:0.088;stroke-linejoin:round"
             inkscape:connector-curvature="0"
             d="m 23.200053,1029.0654 0,-1.4196 1.419471,0 0,1.4196 -1.419471,0 z"
             id="connector3pin" />
          <path
             style="fill:#ffe500;stroke:#000000;stroke-width:0.088;stroke-linejoin:round"
             inkscape:connector-curvature="0"
             d="m 24.619524,1033.278 0,1.4196 -1.419471,0 0,-1.4196 1.419471,0 z"
             id="connector2pin" />
          <path
             style="fill:#ffe500;stroke:#000000;stroke-width:0.088;stroke-linejoin:round"
             inkscape:connector-curvature="0"
             d="m 23.200053,1039.0024 1.419471,0 0,1.4196 -1.419471,0 0,-1.4196 z"
             id="connector1pin" />
          <path
             style="fill:#ffe500;stroke:#000000;stroke-width:0.088;stroke-linejoin:round"
             inkscape:connector-curvature="0"
             d="m 23.200053,1044.6807 1.419471,0 0,1.4196 -1.419471,0 0,-1.4196 z"
             id="connector0pin" />
        </g>
      </g>
    </g>
    <g
       id="g7-0"
       transform="matrix(-0.79497272,0,0,-0.79497272,310.24486,376.58915)">
      <g
         id="g9-1"
         transform="translate(388.946,213.401)">
        <g
           id="breadboard_15_-2">
          <g
             id="Capa_x0020_1_1_-4">
            <g
               id="_144824656_1_-6">
              <g
                 id="g14-7">
                <rect
                   height="57.884998"
                   width="56.699001"
                   y="178.095"
                   x="-142.062"
                   id="_144822136_1_-1"
                   style="fill:#c3c3c3" />
                <path
                   d="m -153.192,235.642 0,-4.092 c 0,-0.196 0.158,-0.353 0.353,-0.353 l 19.319,0 c 0.196,0 0.353,0.156 0.353,0.353 l 0,4.092 c 0,0.195 -0.156,0.355 -0.353,0.355 l -19.319,0 c -0.195,0 -0.353,-0.16 -0.353,-0.355 z"
                   id="_144818704_1_-4"
                   inkscape:connector-curvature="0"
                   style="fill:#c3c3c3" />
                <path
                   d="m -153.192,182.453 0,-4.031 c 0,-0.195 0.158,-0.355 0.353,-0.355 l 19.319,0 c 0.196,0 0.353,0.16 0.353,0.355 l 0,4.031 c 0,0.196 -0.156,0.356 -0.353,0.356 l -19.319,0 c -0.195,0 -0.353,-0.16 -0.353,-0.356 z"
                   id="_144826744_1_-1"
                   inkscape:connector-curvature="0"
                   style="fill:#c3c3c3" />
                <path
                   d="m -96.112,234.82 0,-2.445 c 0,-0.65 0.527,-1.177 1.177,-1.177 l 16.504,0 c 0.65,0 1.177,0.526 1.177,1.177 l 0,2.445 c 0,0.646 -0.526,1.178 -1.177,1.178 l -16.504,0 c -0.65,-10e-4 -1.177,-0.531 -1.177,-1.178 z"
                   id="_144823288_1_-3"
                   inkscape:connector-curvature="0"
                   style="fill:#c3c3c3" />
                <path
                   d="m -87.708,185.307 0,-6.035 c 0,-0.651 0.527,-1.177 1.178,-1.177 l 8.099,0 c 0.65,0 1.177,0.526 1.177,1.177 l 0,6.035 c 0,0.648 -0.526,1.178 -1.177,1.178 l -8.099,0 c -0.65,-0.001 -1.178,-0.531 -1.178,-1.178 z"
                   id="_144827656_1_-9"
                   inkscape:connector-curvature="0"
                   style="fill:#c3c3c3" />
                <rect
                   height="50.438"
                   width="66.611"
                   y="181.813"
                   x="-148.36"
                   id="_144829120_1_-4"
                   style="fill:#c3c3c3" />
                <rect
                   height="53.369999"
                   width="76.050003"
                   y="180.649"
                   x="-153.304"
                   id="_144820960_1_-5"
                   style="fill:#c3c3c3" />
              </g>
              <g
                 transform="matrix(1.0015205,0,0,0.66749576,0.10581019,69.13623)"
                 id="g23-5">
                <line
                   y2="198.17966"
                   x2="-61.181999"
                   y1="198.19066"
                   x1="-77.987"
                   id="_144824728_1_-7"
                   style="fill:none;stroke:#8c8c8c;stroke-width:5" />
                <line
                   y2="180.31369"
                   x2="-61.193001"
                   y1="180.32768"
                   x1="-77.998001"
                   id="_144822016_1_-6"
                   style="fill:none;stroke:#8c8c8c;stroke-width:5" />
                <line
                   y2="235.26447"
                   x2="-61.193001"
                   y1="235.27946"
                   x1="-77.998001"
                   id="_144829456_1_-7"
                   style="fill:none;stroke:#8c8c8c;stroke-width:5" />
                <line
                   y2="217.06227"
                   x2="-61.193001"
                   y1="217.07527"
                   x1="-77.998001"
                   id="_144819832_1_-7"
                   style="fill:none;stroke:#8c8c8c;stroke-width:5" />
              </g>
              <g
                 id="g29-0">
                <g
                   id="g31-1">
                  <rect
                     height="13.079"
                     width="4.8530002"
                     y="179.785"
                     x="-140.269"
                     id="_144826048_1_-2"
                     style="fill:#459cd6" />
                  <rect
                     height="13.079"
                     width="4.8530002"
                     y="179.785"
                     x="-130.46001"
                     id="_144823816_1_-6"
                     style="fill:#459cd6" />
                  <rect
                     height="13.072"
                     width="4.8530002"
                     y="179.785"
                     x="-120.647"
                     id="_144826288_1_-4"
                     style="fill:#459cd6" />
                  <rect
                     height="13.079"
                     width="4.8530002"
                     y="179.785"
                     x="-110.838"
                     id="_144823936_1_-2"
                     style="fill:#459cd6" />
                  <rect
                     height="13.079"
                     width="4.8540001"
                     y="179.785"
                     x="-101.025"
                     id="_144820816_1_-1"
                     style="fill:#459cd6" />
                </g>
                <g
                   id="g38-9">
                  <rect
                     height="3.6370001"
                     width="4.8530002"
                     y="232.99699"
                     x="-140.269"
                     id="_144817768_1_-9"
                     style="fill:#459cd6" />
                  <rect
                     height="3.6370001"
                     width="4.8530002"
                     y="232.99699"
                     x="-130.46001"
                     id="_144819880_1_-1"
                     style="fill:#459cd6" />
                  <rect
                     height="3.6370001"
                     width="4.8530002"
                     y="232.99699"
                     x="-120.647"
                     id="_144822112_1_-4"
                     style="fill:#459cd6" />
                  <rect
                     height="3.6370001"
                     width="4.8530002"
                     y="232.99699"
                     x="-110.838"
                     id="_144820576_1_-3"
                     style="fill:#459cd6" />
                  <rect
                     height="3.6370001"
                     width="4.8540001"
                     y="232.99699"
                     x="-101.025"
                     id="_144821872_1_-7"
                     style="fill:#459cd6" />
                </g>
              </g>
              <g
                 id="g45-3">
                <g
                   id="g47-5">
                  <rect
                     height="4.8499999"
                     width="4.8530002"
                     y="214.855"
                     x="-140.271"
                     id="_144818008_1_-4"
                     style="fill:#1e1e1e" />
                  <rect
                     height="4.8530002"
                     width="4.8530002"
                     y="205.558"
                     x="-140.271"
                     id="_144821656_1_-4"
                     style="fill:#1e1e1e" />
                  <rect
                     height="4.8530002"
                     width="4.8530002"
                     y="196.78101"
                     x="-140.271"
                     id="_144829816_1_-4"
                     style="fill:#1e1e1e" />
                  <path
                     d="m -140.271,192.853 0,-8.173 c 0,-1.067 0.433,-1.942 0.962,-1.942 l 2.927,0 c 0.532,0 0.964,0.875 0.964,1.942 l 0,8.173 -4.853,0 z"
                     id="_144831328_1_-2"
                     inkscape:connector-curvature="0"
                     style="fill:#1e1e1e" />
                  <rect
                     height="8.8459997"
                     width="4.8530002"
                     y="224.149"
                     x="-140.271"
                     id="_144827224_1_-8"
                     style="fill:#1e1e1e" />
                </g>
                <g
                   id="g54-3">
                  <rect
                     height="4.8499999"
                     width="4.8530002"
                     y="214.855"
                     x="-130.46001"
                     id="_144824824_1_-7"
                     style="fill:#1e1e1e" />
                  <rect
                     height="4.8530002"
                     width="4.8530002"
                     y="205.558"
                     x="-130.46001"
                     id="_144817504_1_-6"
                     style="fill:#1e1e1e" />
                  <rect
                     height="4.8530002"
                     width="4.8530002"
                     y="196.78101"
                     x="-130.46001"
                     id="_144825928_1_-6"
                     style="fill:#1e1e1e" />
                  <path
                     d="m -130.46,192.853 0,-8.173 c 0,-1.067 0.434,-1.942 0.964,-1.942 l 2.925,0 c 0.53,0 0.965,0.875 0.965,1.942 l 0,8.173 -4.854,0 z"
                     id="_144829048_1_-3"
                     inkscape:connector-curvature="0"
                     style="fill:#1e1e1e" />
                  <rect
                     height="8.8459997"
                     width="4.8530002"
                     y="224.149"
                     x="-130.46001"
                     id="_144825112_1_-2"
                     style="fill:#1e1e1e" />
                </g>
                <g
                   id="g61-4-6">
                  <rect
                     height="4.8499999"
                     width="4.8540001"
                     y="214.855"
                     x="-120.649"
                     id="_144821512_1_-7"
                     style="fill:#1e1e1e" />
                  <rect
                     height="4.8530002"
                     width="4.8540001"
                     y="205.558"
                     x="-120.649"
                     id="_144822784_1_-4"
                     style="fill:#1e1e1e" />
                  <rect
                     height="4.8530002"
                     width="4.8540001"
                     y="196.78101"
                     x="-120.649"
                     id="_144822664_1_-9"
                     style="fill:#1e1e1e" />
                  <path
                     d="m -120.649,192.853 0,-8.173 c 0,-1.067 0.432,-1.942 0.963,-1.942 l 2.928,0 c 0.53,0 0.963,0.875 0.963,1.942 l 0,8.173 -4.854,0 z"
                     id="_144820672_1_-4"
                     inkscape:connector-curvature="0"
                     style="fill:#1e1e1e" />
                  <rect
                     height="8.8459997"
                     width="4.8540001"
                     y="224.149"
                     x="-120.649"
                     id="_144824752_1_-9"
                     style="fill:#1e1e1e" />
                </g>
                <g
                   id="g68-6">
                  <rect
                     height="4.8499999"
                     width="4.8530002"
                     y="214.855"
                     x="-110.838"
                     id="_144828472_1_-8"
                     style="fill:#1e1e1e" />
                  <rect
                     height="4.8530002"
                     width="4.8530002"
                     y="205.558"
                     x="-110.838"
                     id="_144821968_1_-5"
                     style="fill:#1e1e1e" />
                  <rect
                     height="4.8530002"
                     width="4.8530002"
                     y="196.78101"
                     x="-110.838"
                     id="_144828256_1_-1"
                     style="fill:#1e1e1e" />
                  <path
                     d="m -110.838,192.853 0,-8.173 c 0,-1.067 0.435,-1.942 0.964,-1.942 l 2.925,0 c 0.53,0 0.964,0.875 0.964,1.942 l 0,8.173 -4.853,0 z"
                     id="_144828376_1_-1"
                     inkscape:connector-curvature="0"
                     style="fill:#1e1e1e" />
                  <rect
                     height="8.8459997"
                     width="4.8530002"
                     y="224.149"
                     x="-110.838"
                     id="_144823504_1_-9"
                     style="fill:#1e1e1e" />
                </g>
                <g
                   id="g75-9">
                  <rect
                     height="4.8499999"
                     width="4.8530002"
                     y="214.855"
                     x="-101.026"
                     id="_144825784_1_-7"
                     style="fill:#1e1e1e" />
                  <rect
                     height="4.8530002"
                     width="4.8530002"
                     y="205.558"
                     x="-101.026"
                     id="_144826936_1_-6"
                     style="fill:#1e1e1e" />
                  <rect
                     height="4.8530002"
                     width="4.8530002"
                     y="196.78101"
                     x="-101.026"
                     id="_144826912_1_-6"
                     style="fill:#1e1e1e" />
                  <path
                     d="m -101.026,192.853 0,-8.173 c 0,-1.067 0.434,-1.942 0.964,-1.942 l 2.927,0 c 0.53,0 0.964,0.875 0.964,1.942 l 0,8.173 -4.855,0 z"
                     id="_144827152_1_-3"
                     inkscape:connector-curvature="0"
                     style="fill:#1e1e1e" />
                  <rect
                     height="8.8459997"
                     width="4.8530002"
                     y="224.149"
                     x="-101.026"
                     id="_144827080_1_-7"
                     style="fill:#1e1e1e" />
                </g>
              </g>
              <g
                 id="g82-2">
                <g
                   id="g84-3">
                  <g
                     id="g86-9">
                    <g
                       id="g88-5">
                      <rect
                         height="4.441"
                         width="72.202003"
                         y="219.70399"
                         x="-153.875"
                         id="_144817024_1_-9"
                         style="fill:#459cd6" />
                      <path
                         d="m -155.33,223.822 0,-3.807 c 0,-0.168 0.135,-0.303 0.304,-0.303 l 3.262,0 c 0.167,0 0.302,0.136 0.302,0.303 l 0,3.807 c 0,0.167 -0.135,0.303 -0.302,0.303 l -3.262,0 c -0.169,-0.001 -0.304,-0.136 -0.304,-0.303 z"
                         id="_144817168_1_-0"
                         inkscape:connector-curvature="0"
                         style="fill:#459cd6" />
                    </g>
                    <g
                       id="g92-0">
                      <rect
                         height="4.4400001"
                         width="72.202003"
                         y="210.411"
                         x="-153.875"
                         id="_144817240_1_-4"
                         style="fill:#459cd6" />
                      <path
                         d="m -155.33,214.525 0,-3.807 c 0,-0.168 0.135,-0.303 0.304,-0.303 l 3.262,0 c 0.167,0 0.302,0.135 0.302,0.303 l 0,3.807 c 0,0.171 -0.135,0.306 -0.302,0.306 l -3.262,0 c -0.169,-10e-4 -0.304,-0.135 -0.304,-0.306 z"
                         id="_144816328_1_-6"
                         inkscape:connector-curvature="0"
                         style="fill:#459cd6" />
                    </g>
                    <g
                       id="g96-7">
                      <rect
                         height="4.4400001"
                         width="72.202003"
                         y="201.119"
                         x="-153.875"
                         id="_144815368_1_-6"
                         style="fill:#459cd6" />
                      <path
                         d="m -155.33,205.231 0,-3.807 c 0,-0.167 0.135,-0.303 0.304,-0.303 l 3.262,0 c 0.167,0 0.302,0.136 0.302,0.303 l 0,3.807 c 0,0.167 -0.135,0.303 -0.302,0.303 l -3.262,0 c -0.169,0 -0.304,-0.135 -0.304,-0.303 z"
                         id="_144818248_1_-8"
                         inkscape:connector-curvature="0"
                         style="fill:#459cd6" />
                    </g>
                    <g
                       id="g100-9">
                      <rect
                         height="4.4400001"
                         width="72.202003"
                         y="192.33701"
                         x="-153.875"
                         id="_144817960_1_-2"
                         style="fill:#459cd6" />
                      <path
                         d="m -155.33,196.453 0,-3.807 c 0,-0.167 0.135,-0.306 0.304,-0.306 l 3.262,0 c 0.167,0 0.302,0.139 0.302,0.306 l 0,3.807 c 0,0.167 -0.135,0.303 -0.302,0.303 l -3.262,0 c -0.169,0 -0.304,-0.135 -0.304,-0.303 z"
                         id="_144818128_1_-8"
                         inkscape:connector-curvature="0"
                         style="fill:#459cd6" />
                    </g>
                  </g>
                  <g
                     id="g104-5">
                    <g
                       id="g106-5">
                      <rect
                         height="55.949001"
                         width="6.48"
                         y="180.02299"
                         x="-146.76801"
                         id="_144817864_1_-1"
                         style="fill:#459cd6" />
                      <path
                         d="m -146.754,237.197 0,-5.291 c 0,-0.26 0.21,-0.467 0.466,-0.467 l 5.549,0 c 0.258,0 0.466,0.207 0.466,0.467 l 0,5.291 c 0,0.256 -0.208,0.466 -0.466,0.466 l -5.549,0 c -0.256,-0.001 -0.466,-0.21 -0.466,-0.466 z"
                         id="_144817720_1_-6"
                         inkscape:connector-curvature="0"
                         style="fill:#459cd6" />
                      <path
                         d="m -146.754,185.04 0,-5.555 c 0,-0.256 0.21,-0.466 0.466,-0.466 l 5.549,0 c 0.258,0 0.466,0.21 0.466,0.466 l 0,5.555 c 0,0.256 -0.208,0.466 -0.466,0.466 l -5.549,0 c -0.256,0 -0.466,-0.21 -0.466,-0.466 z"
                         id="_144817408_1_-7"
                         inkscape:connector-curvature="0"
                         style="fill:#459cd6" />
                    </g>
                    <g
                       id="g111-7">
                      <rect
                         height="55.949001"
                         width="4.8579998"
                         y="180.02299"
                         x="-135.338"
                         id="_144817744_1_-0"
                         style="fill:#459cd6" />
                      <path
                         d="m -135.327,237.197 0,-5.291 c 0,-0.26 0.209,-0.467 0.467,-0.467 l 3.923,0 c 0.26,0 0.469,0.207 0.469,0.467 l 0,5.291 c 0,0.256 -0.209,0.466 -0.469,0.466 l -3.923,0 c -0.258,-0.001 -0.467,-0.21 -0.467,-0.466 z"
                         id="_144828448_1_-9"
                         inkscape:connector-curvature="0"
                         style="fill:#459cd6" />
                      <path
                         d="m -135.327,185.04 0,-5.555 c 0,-0.256 0.209,-0.466 0.467,-0.466 l 3.923,0 c 0.26,0 0.469,0.21 0.469,0.466 l 0,5.555 c 0,0.256 -0.209,0.466 -0.469,0.466 l -3.923,0 c -0.258,0 -0.467,-0.21 -0.467,-0.466 z"
                         id="_144815320_1_-9"
                         inkscape:connector-curvature="0"
                         style="fill:#459cd6" />
                    </g>
                    <g
                       id="g116-1">
                      <rect
                         height="55.949001"
                         width="4.9320002"
                         y="180.02299"
                         x="-125.6"
                         id="_144826264_1_-2"
                         style="fill:#459cd6" />
                      <path
                         d="m -125.589,237.197 0,-5.291 c 0,-0.26 0.209,-0.467 0.467,-0.467 l 3.998,0 c 0.256,0 0.466,0.207 0.466,0.467 l 0,5.291 c 0,0.256 -0.21,0.466 -0.466,0.466 l -3.998,0 c -0.258,-0.001 -0.467,-0.21 -0.467,-0.466 z"
                         id="_144825736_1_-2"
                         inkscape:connector-curvature="0"
                         style="fill:#459cd6" />
                      <path
                         d="m -125.589,185.04 0,-5.555 c 0,-0.256 0.209,-0.466 0.467,-0.466 l 3.998,0 c 0.256,0 0.466,0.21 0.466,0.466 l 0,5.555 c 0,0.256 -0.21,0.466 -0.466,0.466 l -3.998,0 c -0.258,0 -0.467,-0.21 -0.467,-0.466 z"
                         id="_144821320_1_-5"
                         inkscape:connector-curvature="0"
                         style="fill:#459cd6" />
                    </g>
                    <g
                       id="g121-6">
                      <rect
                         height="55.949001"
                         width="4.9330001"
                         y="180.02299"
                         x="-115.79"
                         id="_144828688_1_-3"
                         style="fill:#459cd6" />
                      <path
                         d="m -115.776,237.197 0,-5.291 c 0,-0.26 0.208,-0.467 0.466,-0.467 l 3.998,0 c 0.258,0 0.466,0.207 0.466,0.467 l 0,5.291 c 0,0.256 -0.208,0.466 -0.466,0.466 l -3.998,0 c -0.258,-0.001 -0.466,-0.21 -0.466,-0.466 z"
                         id="_144819808_1_-4"
                         inkscape:connector-curvature="0"
                         style="fill:#459cd6" />
                      <path
                         d="m -115.776,185.04 0,-5.555 c 0,-0.256 0.208,-0.466 0.466,-0.466 l 3.998,0 c 0.258,0 0.466,0.21 0.466,0.466 l 0,5.555 c 0,0.256 -0.208,0.466 -0.466,0.466 l -3.998,0 c -0.258,0 -0.466,-0.21 -0.466,-0.466 z"
                         id="_144820288_1_-2"
                         inkscape:connector-curvature="0"
                         style="fill:#459cd6" />
                    </g>
                    <g
                       id="g126-4">
                      <rect
                         height="55.949001"
                         width="4.9320002"
                         y="180.02299"
                         x="-105.977"
                         id="_144820888_1_-8"
                         style="fill:#459cd6" />
                      <path
                         d="m -105.967,237.197 0,-5.291 c 0,-0.26 0.21,-0.467 0.469,-0.467 l 3.997,0 c 0.258,0 0.466,0.207 0.466,0.467 l 0,5.291 c 0,0.256 -0.208,0.466 -0.466,0.466 l -3.997,0 c -0.26,-0.001 -0.469,-0.21 -0.469,-0.466 z"
                         id="_144819568_1_-7"
                         inkscape:connector-curvature="0"
                         style="fill:#459cd6" />
                      <path
                         d="m -105.967,185.04 0,-5.555 c 0,-0.256 0.21,-0.466 0.469,-0.466 l 3.997,0 c 0.258,0 0.466,0.21 0.466,0.466 l 0,5.555 c 0,0.256 -0.208,0.466 -0.466,0.466 l -3.997,0 c -0.26,0 -0.469,-0.21 -0.469,-0.466 z"
                         id="_144818536_1_-1"
                         inkscape:connector-curvature="0"
                         style="fill:#459cd6" />
                    </g>
                  </g>
                </g>
                <g
                   id="g131-9">
                  <g
                     id="g133-3">
                    <rect
                       height="57.889"
                       width="13.339"
                       y="179.12601"
                       x="-93.531998"
                       id="_144827800_1_-9"
                       style="fill:#459cd6" />
                    <path
                       d="m -96.149,236.677 0,-4.096 c 0,-0.195 0.158,-0.352 0.354,-0.352 l 4.002,0 c 0.195,0 0.354,0.156 0.354,0.352 l 0,4.096 c 0,0.191 -0.159,0.352 -0.354,0.352 l -4.002,0 c -0.195,0 -0.354,-0.16 -0.354,-0.352 z"
                       id="_144826000_1_-9"
                       inkscape:connector-curvature="0"
                       style="fill:#459cd6" />
                    <path
                       d="m -96.149,183.489 0,-4.035 c 0,-0.195 0.158,-0.352 0.354,-0.352 l 4.002,0 c 0.195,0 0.354,0.157 0.354,0.352 l 0,4.035 c 0,0.195 -0.159,0.352 -0.354,0.352 l -4.002,0 c -0.195,0 -0.354,-0.157 -0.354,-0.352 z"
                       id="_144827488_1_-9"
                       inkscape:connector-curvature="0"
                       style="fill:#459cd6" />
                    <path
                       d="m -82.722,235.851 0,-2.443 c 0,-0.651 0.526,-1.178 1.177,-1.178 l 2.082,0 c 0.649,0 1.178,0.526 1.178,1.178 l 0,2.443 c 0,0.652 -0.528,1.178 -1.178,1.178 l -2.082,0 c -0.651,0 -1.177,-0.526 -1.177,-1.178 z"
                       id="_144825808_1_-5"
                       inkscape:connector-curvature="0"
                       style="fill:#459cd6" />
                    <path
                       d="m -82.722,182.663 0,-2.359 c 0,-0.651 0.526,-1.178 1.177,-1.178 l 2.082,0 c 0.649,0 1.178,0.526 1.178,1.178 l 0,2.359 c 0,0.651 -0.528,1.178 -1.178,1.178 l -2.082,0 c -0.651,0 -1.177,-0.527 -1.177,-1.178 z"
                       id="_144825208_1_-2"
                       inkscape:connector-curvature="0"
                       style="fill:#459cd6" />
                    <rect
                       height="50.438"
                       width="15.667"
                       y="182.84399"
                       x="-95.011002"
                       id="_144821752_1_-6"
                       style="fill:#459cd6" />
                    <rect
                       height="53.366001"
                       width="17.889999"
                       y="181.68401"
                       x="-96.176003"
                       id="_144821560_1_-6"
                       style="fill:#459cd6" />
                  </g>
                  <g
                     id="g142-7">
                    <path
                       d="m -155.342,235.328 0,-11.837 c 0,-1.273 1.033,-2.31 2.307,-2.31 l 6.924,0 c 1.274,0 2.309,1.036 2.309,2.31 l 0,11.837 c 0,1.274 -1.034,2.307 -2.309,2.307 l -6.924,0 c -1.274,-0.001 -2.307,-1.033 -2.307,-2.307 z"
                       id="_144822040_1_-8"
                       inkscape:connector-curvature="0"
                       style="fill:#459cd6" />
                    <path
                       d="m -155.342,193.01 0,-11.656 c 0,-1.274 1.033,-2.306 2.307,-2.306 l 6.924,0 c 1.274,0 2.309,1.032 2.309,2.306 l 0,11.656 c 0,1.273 -1.034,2.306 -2.309,2.306 l -6.924,0 c -1.274,-0.001 -2.307,-1.033 -2.307,-2.306 z"
                       id="_144822280_1_-1"
                       inkscape:connector-curvature="0"
                       style="fill:#459cd6" />
                  </g>
                </g>
              </g>
              <g
                 id="g146-3">
                <g
                   id="g148-4">
                  <g
                     id="g150-6">
                    <rect
                       height="4.8379998"
                       width="3.572"
                       y="214.867"
                       x="-150.341"
                       id="_144827680_1_-5"
                       style="fill:#333332" />
                    <rect
                       height="4.8340001"
                       width="3.572"
                       y="205.573"
                       x="-150.341"
                       id="_144824176_1_-5"
                       style="fill:#333332" />
                    <rect
                       height="4.1059999"
                       width="3.572"
                       y="196.998"
                       x="-150.341"
                       id="_144822616_1_-0"
                       style="fill:#333332" />
                  </g>
                  <g
                     id="g155-4">
                    <path
                       d="m -148.768,219.704 c 0,-4.85 0,-4.85 0,-4.85"
                       id="_144828880_1_-4"
                       inkscape:connector-curvature="0"
                       style="fill:none;stroke:#79796f;stroke-width:0.25" />
                    <path
                       d="m -148.992,210.411 c -0.009,-1.52 0.733,-2.355 2.213,-2.451"
                       id="_144823480_1_-8"
                       inkscape:connector-curvature="0"
                       style="fill:none;stroke:#79796f;stroke-width:0.0762" />
                  </g>
                </g>
                <g
                   id="g159-7">
                  <rect
                     height="4.8379998"
                     width="3.573"
                     y="214.867"
                     x="-153.877"
                     id="_144817384_1_-2"
                     style="fill:#459cd6" />
                  <rect
                     height="4.8340001"
                     width="3.573"
                     y="205.573"
                     x="-153.877"
                     id="_144825040_1_-1"
                     style="fill:#459cd6" />
                  <rect
                     height="4.1059999"
                     width="3.573"
                     y="196.998"
                     x="-153.877"
                     id="_144817648_1_-5"
                     style="fill:#459cd6" />
                </g>
              </g>
            </g>
          </g>
          <rect
             height="7.2870002"
             width="7.2870002"
             y="224.593"
             x="-68.713997"
             id="connector8_1_-0"
             style="fill:none" />
          <rect
             height="7.2859998"
             width="7.2870002"
             y="211.22301"
             x="-68.713997"
             id="connector9_1_-2"
             style="fill:none" />
          <rect
             height="7.2870002"
             width="7.2870002"
             y="198.535"
             x="-68.370003"
             id="connector10_1_-8"
             style="fill:none" />
          <rect
             height="7.2870002"
             width="7.2870002"
             y="185.161"
             x="-68.713997"
             id="connector11_1_-6"
             style="fill:none" />
        </g>
      </g>
    </g>
    <text
       style="font-size:4px;font-family:OCRA;fill:#ffffff"
       font-size="3.2"
       y="55.462826"
       x="27.195627"
       id="tspan11445">GND</text>
    <text
       style="font-size:4px;font-family:OCRA;fill:#ffffff"
       font-size="3.2"
       y="47.551647"
       x="27.195627"
       id="tspan11445-6">VCC</text>
    <text
       style="font-size:4px;font-family:OCRA;fill:#ffffff"
       font-size="3.2"
       y="38.560467"
       x="27.195627"
       id="tspan11445-1">NC</text>
    <text
       style="font-size:4px;font-family:OCRA;fill:#ffffff"
       font-size="3.2"
       y="29.929279"
       x="27.195627"
       id="tspan11445-7">SIG</text>
  </g>
</svg>
